<?xml version="1.0" encoding="utf-8" standalone="no"?>
<!DOCTYPE svg PUBLIC "-//W3C//DTD SVG 1.1//EN"
  "http://www.w3.org/Graphics/SVG/1.1/DTD/svg11.dtd">
<!-- Created with matplotlib (https://matplotlib.org/) -->
<svg height="432pt" version="1.1" viewBox="0 0 864 432" width="864pt" xmlns="http://www.w3.org/2000/svg" xmlns:xlink="http://www.w3.org/1999/xlink">
 <defs>
  <style type="text/css">
*{stroke-linecap:butt;stroke-linejoin:round;}
  </style>
 </defs>
 <g id="figure_1">
  <g id="patch_1">
   <path d="M 0 432 
L 864 432 
L 864 0 
L 0 0 
z
" style="fill:#ffffff;"/>
  </g>
  <g id="axes_1">
   <g id="patch_2">
    <path d="M 50.629609 386.4 
L 441.264805 386.4 
L 441.264805 30.7 
L 50.629609 30.7 
z
" style="fill:#ffffff;"/>
   </g>
   <g id="matplotlib.axis_1">
    <g id="xtick_1">
     <g id="line2d_1">
      <path clip-path="url(#pb809cd157e)" d="M 136.863227 386.4 
L 136.863227 30.7 
" style="fill:none;stroke:#b0b0b0;stroke-linecap:square;stroke-opacity:0.2;stroke-width:0.8;"/>
     </g>
     <g id="line2d_2">
      <defs>
       <path d="M 0 0 
L 0 3.5 
" id="mfb96e6c79e" style="stroke:#000000;stroke-width:0.8;"/>
      </defs>
      <g>
       <use style="stroke:#000000;stroke-width:0.8;" x="136.863227" xlink:href="#mfb96e6c79e" y="386.4"/>
      </g>
     </g>
     <g id="text_1">
      <!-- $\mathdefault{10^{0}}$ -->
      <defs>
       <path d="M 12.40625 8.296875 
L 28.515625 8.296875 
L 28.515625 63.921875 
L 10.984375 60.40625 
L 10.984375 69.390625 
L 28.421875 72.90625 
L 38.28125 72.90625 
L 38.28125 8.296875 
L 54.390625 8.296875 
L 54.390625 0 
L 12.40625 0 
z
" id="DejaVuSans-49"/>
       <path d="M 31.78125 66.40625 
Q 24.171875 66.40625 20.328125 58.90625 
Q 16.5 51.421875 16.5 36.375 
Q 16.5 21.390625 20.328125 13.890625 
Q 24.171875 6.390625 31.78125 6.390625 
Q 39.453125 6.390625 43.28125 13.890625 
Q 47.125 21.390625 47.125 36.375 
Q 47.125 51.421875 43.28125 58.90625 
Q 39.453125 66.40625 31.78125 66.40625 
z
M 31.78125 74.21875 
Q 44.046875 74.21875 50.515625 64.515625 
Q 56.984375 54.828125 56.984375 36.375 
Q 56.984375 17.96875 50.515625 8.265625 
Q 44.046875 -1.421875 31.78125 -1.421875 
Q 19.53125 -1.421875 13.0625 8.265625 
Q 6.59375 17.96875 6.59375 36.375 
Q 6.59375 54.828125 13.0625 64.515625 
Q 19.53125 74.21875 31.78125 74.21875 
z
" id="DejaVuSans-48"/>
      </defs>
      <g transform="translate(128.063227 400.998438)scale(0.1 -0.1)">
       <use transform="translate(0 0.765625)" xlink:href="#DejaVuSans-49"/>
       <use transform="translate(63.623047 0.765625)" xlink:href="#DejaVuSans-48"/>
       <use transform="translate(128.203125 39.046875)scale(0.7)" xlink:href="#DejaVuSans-48"/>
      </g>
     </g>
    </g>
    <g id="xtick_2">
     <g id="line2d_3">
      <path clip-path="url(#pb809cd157e)" d="M 333.311594 386.4 
L 333.311594 30.7 
" style="fill:none;stroke:#b0b0b0;stroke-linecap:square;stroke-opacity:0.2;stroke-width:0.8;"/>
     </g>
     <g id="line2d_4">
      <g>
       <use style="stroke:#000000;stroke-width:0.8;" x="333.311594" xlink:href="#mfb96e6c79e" y="386.4"/>
      </g>
     </g>
     <g id="text_2">
      <!-- $\mathdefault{10^{1}}$ -->
      <g transform="translate(324.511594 400.998438)scale(0.1 -0.1)">
       <use transform="translate(0 0.684375)" xlink:href="#DejaVuSans-49"/>
       <use transform="translate(63.623047 0.684375)" xlink:href="#DejaVuSans-48"/>
       <use transform="translate(128.203125 38.965625)scale(0.7)" xlink:href="#DejaVuSans-49"/>
      </g>
     </g>
    </g>
    <g id="xtick_3">
     <g id="line2d_5">
      <path clip-path="url(#pb809cd157e)" d="M 58.688562 386.4 
L 58.688562 30.7 
" style="fill:none;stroke:#b0b0b0;stroke-linecap:square;stroke-opacity:0.2;stroke-width:0.8;"/>
     </g>
     <g id="line2d_6">
      <defs>
       <path d="M 0 0 
L 0 2 
" id="ma50badac46" style="stroke:#000000;stroke-width:0.6;"/>
      </defs>
      <g>
       <use style="stroke:#000000;stroke-width:0.6;" x="58.688562" xlink:href="#ma50badac46" y="386.4"/>
      </g>
     </g>
    </g>
    <g id="xtick_4">
     <g id="line2d_7">
      <path clip-path="url(#pb809cd157e)" d="M 77.726376 386.4 
L 77.726376 30.7 
" style="fill:none;stroke:#b0b0b0;stroke-linecap:square;stroke-opacity:0.2;stroke-width:0.8;"/>
     </g>
     <g id="line2d_8">
      <g>
       <use style="stroke:#000000;stroke-width:0.6;" x="77.726376" xlink:href="#ma50badac46" y="386.4"/>
      </g>
     </g>
    </g>
    <g id="xtick_5">
     <g id="line2d_9">
      <path clip-path="url(#pb809cd157e)" d="M 93.281402 386.4 
L 93.281402 30.7 
" style="fill:none;stroke:#b0b0b0;stroke-linecap:square;stroke-opacity:0.2;stroke-width:0.8;"/>
     </g>
     <g id="line2d_10">
      <g>
       <use style="stroke:#000000;stroke-width:0.6;" x="93.281402" xlink:href="#ma50badac46" y="386.4"/>
      </g>
     </g>
    </g>
    <g id="xtick_6">
     <g id="line2d_11">
      <path clip-path="url(#pb809cd157e)" d="M 106.43299 386.4 
L 106.43299 30.7 
" style="fill:none;stroke:#b0b0b0;stroke-linecap:square;stroke-opacity:0.2;stroke-width:0.8;"/>
     </g>
     <g id="line2d_12">
      <g>
       <use style="stroke:#000000;stroke-width:0.6;" x="106.43299" xlink:href="#ma50badac46" y="386.4"/>
      </g>
     </g>
    </g>
    <g id="xtick_7">
     <g id="line2d_13">
      <path clip-path="url(#pb809cd157e)" d="M 117.825413 386.4 
L 117.825413 30.7 
" style="fill:none;stroke:#b0b0b0;stroke-linecap:square;stroke-opacity:0.2;stroke-width:0.8;"/>
     </g>
     <g id="line2d_14">
      <g>
       <use style="stroke:#000000;stroke-width:0.6;" x="117.825413" xlink:href="#ma50badac46" y="386.4"/>
      </g>
     </g>
    </g>
    <g id="xtick_8">
     <g id="line2d_15">
      <path clip-path="url(#pb809cd157e)" d="M 127.874242 386.4 
L 127.874242 30.7 
" style="fill:none;stroke:#b0b0b0;stroke-linecap:square;stroke-opacity:0.2;stroke-width:0.8;"/>
     </g>
     <g id="line2d_16">
      <g>
       <use style="stroke:#000000;stroke-width:0.6;" x="127.874242" xlink:href="#ma50badac46" y="386.4"/>
      </g>
     </g>
    </g>
    <g id="xtick_9">
     <g id="line2d_17">
      <path clip-path="url(#pb809cd157e)" d="M 196.000078 386.4 
L 196.000078 30.7 
" style="fill:none;stroke:#b0b0b0;stroke-linecap:square;stroke-opacity:0.2;stroke-width:0.8;"/>
     </g>
     <g id="line2d_18">
      <g>
       <use style="stroke:#000000;stroke-width:0.6;" x="196.000078" xlink:href="#ma50badac46" y="386.4"/>
      </g>
     </g>
    </g>
    <g id="xtick_10">
     <g id="line2d_19">
      <path clip-path="url(#pb809cd157e)" d="M 230.592918 386.4 
L 230.592918 30.7 
" style="fill:none;stroke:#b0b0b0;stroke-linecap:square;stroke-opacity:0.2;stroke-width:0.8;"/>
     </g>
     <g id="line2d_20">
      <g>
       <use style="stroke:#000000;stroke-width:0.6;" x="230.592918" xlink:href="#ma50badac46" y="386.4"/>
      </g>
     </g>
    </g>
    <g id="xtick_11">
     <g id="line2d_21">
      <path clip-path="url(#pb809cd157e)" d="M 255.136929 386.4 
L 255.136929 30.7 
" style="fill:none;stroke:#b0b0b0;stroke-linecap:square;stroke-opacity:0.2;stroke-width:0.8;"/>
     </g>
     <g id="line2d_22">
      <g>
       <use style="stroke:#000000;stroke-width:0.6;" x="255.136929" xlink:href="#ma50badac46" y="386.4"/>
      </g>
     </g>
    </g>
    <g id="xtick_12">
     <g id="line2d_23">
      <path clip-path="url(#pb809cd157e)" d="M 274.174743 386.4 
L 274.174743 30.7 
" style="fill:none;stroke:#b0b0b0;stroke-linecap:square;stroke-opacity:0.2;stroke-width:0.8;"/>
     </g>
     <g id="line2d_24">
      <g>
       <use style="stroke:#000000;stroke-width:0.6;" x="274.174743" xlink:href="#ma50badac46" y="386.4"/>
      </g>
     </g>
    </g>
    <g id="xtick_13">
     <g id="line2d_25">
      <path clip-path="url(#pb809cd157e)" d="M 289.729769 386.4 
L 289.729769 30.7 
" style="fill:none;stroke:#b0b0b0;stroke-linecap:square;stroke-opacity:0.2;stroke-width:0.8;"/>
     </g>
     <g id="line2d_26">
      <g>
       <use style="stroke:#000000;stroke-width:0.6;" x="289.729769" xlink:href="#ma50badac46" y="386.4"/>
      </g>
     </g>
    </g>
    <g id="xtick_14">
     <g id="line2d_27">
      <path clip-path="url(#pb809cd157e)" d="M 302.881357 386.4 
L 302.881357 30.7 
" style="fill:none;stroke:#b0b0b0;stroke-linecap:square;stroke-opacity:0.2;stroke-width:0.8;"/>
     </g>
     <g id="line2d_28">
      <g>
       <use style="stroke:#000000;stroke-width:0.6;" x="302.881357" xlink:href="#ma50badac46" y="386.4"/>
      </g>
     </g>
    </g>
    <g id="xtick_15">
     <g id="line2d_29">
      <path clip-path="url(#pb809cd157e)" d="M 314.27378 386.4 
L 314.27378 30.7 
" style="fill:none;stroke:#b0b0b0;stroke-linecap:square;stroke-opacity:0.2;stroke-width:0.8;"/>
     </g>
     <g id="line2d_30">
      <g>
       <use style="stroke:#000000;stroke-width:0.6;" x="314.27378" xlink:href="#ma50badac46" y="386.4"/>
      </g>
     </g>
    </g>
    <g id="xtick_16">
     <g id="line2d_31">
      <path clip-path="url(#pb809cd157e)" d="M 324.32261 386.4 
L 324.32261 30.7 
" style="fill:none;stroke:#b0b0b0;stroke-linecap:square;stroke-opacity:0.2;stroke-width:0.8;"/>
     </g>
     <g id="line2d_32">
      <g>
       <use style="stroke:#000000;stroke-width:0.6;" x="324.32261" xlink:href="#ma50badac46" y="386.4"/>
      </g>
     </g>
    </g>
    <g id="xtick_17">
     <g id="line2d_33">
      <path clip-path="url(#pb809cd157e)" d="M 392.448445 386.4 
L 392.448445 30.7 
" style="fill:none;stroke:#b0b0b0;stroke-linecap:square;stroke-opacity:0.2;stroke-width:0.8;"/>
     </g>
     <g id="line2d_34">
      <g>
       <use style="stroke:#000000;stroke-width:0.6;" x="392.448445" xlink:href="#ma50badac46" y="386.4"/>
      </g>
     </g>
    </g>
    <g id="xtick_18">
     <g id="line2d_35">
      <path clip-path="url(#pb809cd157e)" d="M 427.041285 386.4 
L 427.041285 30.7 
" style="fill:none;stroke:#b0b0b0;stroke-linecap:square;stroke-opacity:0.2;stroke-width:0.8;"/>
     </g>
     <g id="line2d_36">
      <g>
       <use style="stroke:#000000;stroke-width:0.6;" x="427.041285" xlink:href="#ma50badac46" y="386.4"/>
      </g>
     </g>
    </g>
    <g id="text_3">
     <!-- GBR (mmol per gCDW) -->
     <defs>
      <path d="M 59.515625 10.40625 
L 59.515625 29.984375 
L 43.40625 29.984375 
L 43.40625 38.09375 
L 69.28125 38.09375 
L 69.28125 6.78125 
Q 63.578125 2.734375 56.6875 0.65625 
Q 49.8125 -1.421875 42 -1.421875 
Q 24.90625 -1.421875 15.25 8.5625 
Q 5.609375 18.5625 5.609375 36.375 
Q 5.609375 54.25 15.25 64.234375 
Q 24.90625 74.21875 42 74.21875 
Q 49.125 74.21875 55.546875 72.453125 
Q 61.96875 70.703125 67.390625 67.28125 
L 67.390625 56.78125 
Q 61.921875 61.421875 55.765625 63.765625 
Q 49.609375 66.109375 42.828125 66.109375 
Q 29.4375 66.109375 22.71875 58.640625 
Q 16.015625 51.171875 16.015625 36.375 
Q 16.015625 21.625 22.71875 14.15625 
Q 29.4375 6.6875 42.828125 6.6875 
Q 48.046875 6.6875 52.140625 7.59375 
Q 56.25 8.5 59.515625 10.40625 
z
" id="DejaVuSans-71"/>
      <path d="M 19.671875 34.8125 
L 19.671875 8.109375 
L 35.5 8.109375 
Q 43.453125 8.109375 47.28125 11.40625 
Q 51.125 14.703125 51.125 21.484375 
Q 51.125 28.328125 47.28125 31.5625 
Q 43.453125 34.8125 35.5 34.8125 
z
M 19.671875 64.796875 
L 19.671875 42.828125 
L 34.28125 42.828125 
Q 41.5 42.828125 45.03125 45.53125 
Q 48.578125 48.25 48.578125 53.8125 
Q 48.578125 59.328125 45.03125 62.0625 
Q 41.5 64.796875 34.28125 64.796875 
z
M 9.8125 72.90625 
L 35.015625 72.90625 
Q 46.296875 72.90625 52.390625 68.21875 
Q 58.5 63.53125 58.5 54.890625 
Q 58.5 48.1875 55.375 44.234375 
Q 52.25 40.28125 46.1875 39.3125 
Q 53.46875 37.75 57.5 32.78125 
Q 61.53125 27.828125 61.53125 20.40625 
Q 61.53125 10.640625 54.890625 5.3125 
Q 48.25 0 35.984375 0 
L 9.8125 0 
z
" id="DejaVuSans-66"/>
      <path d="M 44.390625 34.1875 
Q 47.5625 33.109375 50.5625 29.59375 
Q 53.5625 26.078125 56.59375 19.921875 
L 66.609375 0 
L 56 0 
L 46.6875 18.703125 
Q 43.0625 26.03125 39.671875 28.421875 
Q 36.28125 30.8125 30.421875 30.8125 
L 19.671875 30.8125 
L 19.671875 0 
L 9.8125 0 
L 9.8125 72.90625 
L 32.078125 72.90625 
Q 44.578125 72.90625 50.734375 67.671875 
Q 56.890625 62.453125 56.890625 51.90625 
Q 56.890625 45.015625 53.6875 40.46875 
Q 50.484375 35.9375 44.390625 34.1875 
z
M 19.671875 64.796875 
L 19.671875 38.921875 
L 32.078125 38.921875 
Q 39.203125 38.921875 42.84375 42.21875 
Q 46.484375 45.515625 46.484375 51.90625 
Q 46.484375 58.296875 42.84375 61.546875 
Q 39.203125 64.796875 32.078125 64.796875 
z
" id="DejaVuSans-82"/>
      <path id="DejaVuSans-32"/>
      <path d="M 31 75.875 
Q 24.46875 64.65625 21.28125 53.65625 
Q 18.109375 42.671875 18.109375 31.390625 
Q 18.109375 20.125 21.3125 9.0625 
Q 24.515625 -2 31 -13.1875 
L 23.1875 -13.1875 
Q 15.875 -1.703125 12.234375 9.375 
Q 8.59375 20.453125 8.59375 31.390625 
Q 8.59375 42.28125 12.203125 53.3125 
Q 15.828125 64.359375 23.1875 75.875 
z
" id="DejaVuSans-40"/>
      <path d="M 52 44.1875 
Q 55.375 50.25 60.0625 53.125 
Q 64.75 56 71.09375 56 
Q 79.640625 56 84.28125 50.015625 
Q 88.921875 44.046875 88.921875 33.015625 
L 88.921875 0 
L 79.890625 0 
L 79.890625 32.71875 
Q 79.890625 40.578125 77.09375 44.375 
Q 74.3125 48.1875 68.609375 48.1875 
Q 61.625 48.1875 57.5625 43.546875 
Q 53.515625 38.921875 53.515625 30.90625 
L 53.515625 0 
L 44.484375 0 
L 44.484375 32.71875 
Q 44.484375 40.625 41.703125 44.40625 
Q 38.921875 48.1875 33.109375 48.1875 
Q 26.21875 48.1875 22.15625 43.53125 
Q 18.109375 38.875 18.109375 30.90625 
L 18.109375 0 
L 9.078125 0 
L 9.078125 54.6875 
L 18.109375 54.6875 
L 18.109375 46.1875 
Q 21.1875 51.21875 25.484375 53.609375 
Q 29.78125 56 35.6875 56 
Q 41.65625 56 45.828125 52.96875 
Q 50 49.953125 52 44.1875 
z
" id="DejaVuSans-109"/>
      <path d="M 30.609375 48.390625 
Q 23.390625 48.390625 19.1875 42.75 
Q 14.984375 37.109375 14.984375 27.296875 
Q 14.984375 17.484375 19.15625 11.84375 
Q 23.34375 6.203125 30.609375 6.203125 
Q 37.796875 6.203125 41.984375 11.859375 
Q 46.1875 17.53125 46.1875 27.296875 
Q 46.1875 37.015625 41.984375 42.703125 
Q 37.796875 48.390625 30.609375 48.390625 
z
M 30.609375 56 
Q 42.328125 56 49.015625 48.375 
Q 55.71875 40.765625 55.71875 27.296875 
Q 55.71875 13.875 49.015625 6.21875 
Q 42.328125 -1.421875 30.609375 -1.421875 
Q 18.84375 -1.421875 12.171875 6.21875 
Q 5.515625 13.875 5.515625 27.296875 
Q 5.515625 40.765625 12.171875 48.375 
Q 18.84375 56 30.609375 56 
z
" id="DejaVuSans-111"/>
      <path d="M 9.421875 75.984375 
L 18.40625 75.984375 
L 18.40625 0 
L 9.421875 0 
z
" id="DejaVuSans-108"/>
      <path d="M 18.109375 8.203125 
L 18.109375 -20.796875 
L 9.078125 -20.796875 
L 9.078125 54.6875 
L 18.109375 54.6875 
L 18.109375 46.390625 
Q 20.953125 51.265625 25.265625 53.625 
Q 29.59375 56 35.59375 56 
Q 45.5625 56 51.78125 48.09375 
Q 58.015625 40.1875 58.015625 27.296875 
Q 58.015625 14.40625 51.78125 6.484375 
Q 45.5625 -1.421875 35.59375 -1.421875 
Q 29.59375 -1.421875 25.265625 0.953125 
Q 20.953125 3.328125 18.109375 8.203125 
z
M 48.6875 27.296875 
Q 48.6875 37.203125 44.609375 42.84375 
Q 40.53125 48.484375 33.40625 48.484375 
Q 26.265625 48.484375 22.1875 42.84375 
Q 18.109375 37.203125 18.109375 27.296875 
Q 18.109375 17.390625 22.1875 11.75 
Q 26.265625 6.109375 33.40625 6.109375 
Q 40.53125 6.109375 44.609375 11.75 
Q 48.6875 17.390625 48.6875 27.296875 
z
" id="DejaVuSans-112"/>
      <path d="M 56.203125 29.59375 
L 56.203125 25.203125 
L 14.890625 25.203125 
Q 15.484375 15.921875 20.484375 11.0625 
Q 25.484375 6.203125 34.421875 6.203125 
Q 39.59375 6.203125 44.453125 7.46875 
Q 49.3125 8.734375 54.109375 11.28125 
L 54.109375 2.78125 
Q 49.265625 0.734375 44.1875 -0.34375 
Q 39.109375 -1.421875 33.890625 -1.421875 
Q 20.796875 -1.421875 13.15625 6.1875 
Q 5.515625 13.8125 5.515625 26.8125 
Q 5.515625 40.234375 12.765625 48.109375 
Q 20.015625 56 32.328125 56 
Q 43.359375 56 49.78125 48.890625 
Q 56.203125 41.796875 56.203125 29.59375 
z
M 47.21875 32.234375 
Q 47.125 39.59375 43.09375 43.984375 
Q 39.0625 48.390625 32.421875 48.390625 
Q 24.90625 48.390625 20.390625 44.140625 
Q 15.875 39.890625 15.1875 32.171875 
z
" id="DejaVuSans-101"/>
      <path d="M 41.109375 46.296875 
Q 39.59375 47.171875 37.8125 47.578125 
Q 36.03125 48 33.890625 48 
Q 26.265625 48 22.1875 43.046875 
Q 18.109375 38.09375 18.109375 28.8125 
L 18.109375 0 
L 9.078125 0 
L 9.078125 54.6875 
L 18.109375 54.6875 
L 18.109375 46.1875 
Q 20.953125 51.171875 25.484375 53.578125 
Q 30.03125 56 36.53125 56 
Q 37.453125 56 38.578125 55.875 
Q 39.703125 55.765625 41.0625 55.515625 
z
" id="DejaVuSans-114"/>
      <path d="M 45.40625 27.984375 
Q 45.40625 37.75 41.375 43.109375 
Q 37.359375 48.484375 30.078125 48.484375 
Q 22.859375 48.484375 18.828125 43.109375 
Q 14.796875 37.75 14.796875 27.984375 
Q 14.796875 18.265625 18.828125 12.890625 
Q 22.859375 7.515625 30.078125 7.515625 
Q 37.359375 7.515625 41.375 12.890625 
Q 45.40625 18.265625 45.40625 27.984375 
z
M 54.390625 6.78125 
Q 54.390625 -7.171875 48.1875 -13.984375 
Q 42 -20.796875 29.203125 -20.796875 
Q 24.46875 -20.796875 20.265625 -20.09375 
Q 16.0625 -19.390625 12.109375 -17.921875 
L 12.109375 -9.1875 
Q 16.0625 -11.328125 19.921875 -12.34375 
Q 23.78125 -13.375 27.78125 -13.375 
Q 36.625 -13.375 41.015625 -8.765625 
Q 45.40625 -4.15625 45.40625 5.171875 
L 45.40625 9.625 
Q 42.625 4.78125 38.28125 2.390625 
Q 33.9375 0 27.875 0 
Q 17.828125 0 11.671875 7.65625 
Q 5.515625 15.328125 5.515625 27.984375 
Q 5.515625 40.671875 11.671875 48.328125 
Q 17.828125 56 27.875 56 
Q 33.9375 56 38.28125 53.609375 
Q 42.625 51.21875 45.40625 46.390625 
L 45.40625 54.6875 
L 54.390625 54.6875 
z
" id="DejaVuSans-103"/>
      <path d="M 64.40625 67.28125 
L 64.40625 56.890625 
Q 59.421875 61.53125 53.78125 63.8125 
Q 48.140625 66.109375 41.796875 66.109375 
Q 29.296875 66.109375 22.65625 58.46875 
Q 16.015625 50.828125 16.015625 36.375 
Q 16.015625 21.96875 22.65625 14.328125 
Q 29.296875 6.6875 41.796875 6.6875 
Q 48.140625 6.6875 53.78125 8.984375 
Q 59.421875 11.28125 64.40625 15.921875 
L 64.40625 5.609375 
Q 59.234375 2.09375 53.4375 0.328125 
Q 47.65625 -1.421875 41.21875 -1.421875 
Q 24.65625 -1.421875 15.125 8.703125 
Q 5.609375 18.84375 5.609375 36.375 
Q 5.609375 53.953125 15.125 64.078125 
Q 24.65625 74.21875 41.21875 74.21875 
Q 47.75 74.21875 53.53125 72.484375 
Q 59.328125 70.75 64.40625 67.28125 
z
" id="DejaVuSans-67"/>
      <path d="M 19.671875 64.796875 
L 19.671875 8.109375 
L 31.59375 8.109375 
Q 46.6875 8.109375 53.6875 14.9375 
Q 60.6875 21.78125 60.6875 36.53125 
Q 60.6875 51.171875 53.6875 57.984375 
Q 46.6875 64.796875 31.59375 64.796875 
z
M 9.8125 72.90625 
L 30.078125 72.90625 
Q 51.265625 72.90625 61.171875 64.09375 
Q 71.09375 55.28125 71.09375 36.53125 
Q 71.09375 17.671875 61.125 8.828125 
Q 51.171875 0 30.078125 0 
L 9.8125 0 
z
" id="DejaVuSans-68"/>
      <path d="M 3.328125 72.90625 
L 13.28125 72.90625 
L 28.609375 11.28125 
L 43.890625 72.90625 
L 54.984375 72.90625 
L 70.3125 11.28125 
L 85.59375 72.90625 
L 95.609375 72.90625 
L 77.296875 0 
L 64.890625 0 
L 49.515625 63.28125 
L 33.984375 0 
L 21.578125 0 
z
" id="DejaVuSans-87"/>
      <path d="M 8.015625 75.875 
L 15.828125 75.875 
Q 23.140625 64.359375 26.78125 53.3125 
Q 30.421875 42.28125 30.421875 31.390625 
Q 30.421875 20.453125 26.78125 9.375 
Q 23.140625 -1.703125 15.828125 -13.1875 
L 8.015625 -13.1875 
Q 14.5 -2 17.703125 9.0625 
Q 20.90625 20.125 20.90625 31.390625 
Q 20.90625 42.671875 17.703125 53.65625 
Q 14.5 64.65625 8.015625 75.875 
z
" id="DejaVuSans-41"/>
     </defs>
     <g transform="translate(188.544863 414.676563)scale(0.1 -0.1)">
      <use xlink:href="#DejaVuSans-71"/>
      <use x="77.490234" xlink:href="#DejaVuSans-66"/>
      <use x="146.09375" xlink:href="#DejaVuSans-82"/>
      <use x="215.576172" xlink:href="#DejaVuSans-32"/>
      <use x="247.363281" xlink:href="#DejaVuSans-40"/>
      <use x="286.376953" xlink:href="#DejaVuSans-109"/>
      <use x="383.789062" xlink:href="#DejaVuSans-109"/>
      <use x="481.201172" xlink:href="#DejaVuSans-111"/>
      <use x="542.382812" xlink:href="#DejaVuSans-108"/>
      <use x="570.166016" xlink:href="#DejaVuSans-32"/>
      <use x="601.953125" xlink:href="#DejaVuSans-112"/>
      <use x="665.429688" xlink:href="#DejaVuSans-101"/>
      <use x="726.953125" xlink:href="#DejaVuSans-114"/>
      <use x="768.066406" xlink:href="#DejaVuSans-32"/>
      <use x="799.853516" xlink:href="#DejaVuSans-103"/>
      <use x="863.330078" xlink:href="#DejaVuSans-67"/>
      <use x="933.154297" xlink:href="#DejaVuSans-68"/>
      <use x="1010.15625" xlink:href="#DejaVuSans-87"/>
      <use x="1109.033203" xlink:href="#DejaVuSans-41"/>
     </g>
    </g>
   </g>
   <g id="matplotlib.axis_2">
    <g id="ytick_1">
     <g id="line2d_37">
      <path clip-path="url(#pb809cd157e)" d="M 50.629609 310.549869 
L 441.264805 310.549869 
" style="fill:none;stroke:#b0b0b0;stroke-linecap:square;stroke-opacity:0.2;stroke-width:0.8;"/>
     </g>
     <g id="line2d_38">
      <defs>
       <path d="M 0 0 
L -3.5 0 
" id="m7f7742185b" style="stroke:#000000;stroke-width:0.8;"/>
      </defs>
      <g>
       <use style="stroke:#000000;stroke-width:0.8;" x="50.629609" xlink:href="#m7f7742185b" y="310.549869"/>
      </g>
     </g>
     <g id="text_4">
      <!-- $\mathdefault{10^{0}}$ -->
      <g transform="translate(26.029609 314.349088)scale(0.1 -0.1)">
       <use transform="translate(0 0.765625)" xlink:href="#DejaVuSans-49"/>
       <use transform="translate(63.623047 0.765625)" xlink:href="#DejaVuSans-48"/>
       <use transform="translate(128.203125 39.046875)scale(0.7)" xlink:href="#DejaVuSans-48"/>
      </g>
     </g>
    </g>
    <g id="ytick_2">
     <g id="line2d_39">
      <path clip-path="url(#pb809cd157e)" d="M 50.629609 139.334124 
L 441.264805 139.334124 
" style="fill:none;stroke:#b0b0b0;stroke-linecap:square;stroke-opacity:0.2;stroke-width:0.8;"/>
     </g>
     <g id="line2d_40">
      <g>
       <use style="stroke:#000000;stroke-width:0.8;" x="50.629609" xlink:href="#m7f7742185b" y="139.334124"/>
      </g>
     </g>
     <g id="text_5">
      <!-- $\mathdefault{10^{1}}$ -->
      <g transform="translate(26.029609 143.133343)scale(0.1 -0.1)">
       <use transform="translate(0 0.684375)" xlink:href="#DejaVuSans-49"/>
       <use transform="translate(63.623047 0.684375)" xlink:href="#DejaVuSans-48"/>
       <use transform="translate(128.203125 38.965625)scale(0.7)" xlink:href="#DejaVuSans-49"/>
      </g>
     </g>
    </g>
    <g id="ytick_3">
     <g id="line2d_41">
      <path clip-path="url(#pb809cd157e)" d="M 50.629609 378.683464 
L 441.264805 378.683464 
" style="fill:none;stroke:#b0b0b0;stroke-linecap:square;stroke-opacity:0.2;stroke-width:0.8;"/>
     </g>
     <g id="line2d_42">
      <defs>
       <path d="M 0 0 
L -2 0 
" id="m69a510b0be" style="stroke:#000000;stroke-width:0.6;"/>
      </defs>
      <g>
       <use style="stroke:#000000;stroke-width:0.6;" x="50.629609" xlink:href="#m69a510b0be" y="378.683464"/>
      </g>
     </g>
    </g>
    <g id="ytick_4">
     <g id="line2d_43">
      <path clip-path="url(#pb809cd157e)" d="M 50.629609 362.090944 
L 441.264805 362.090944 
" style="fill:none;stroke:#b0b0b0;stroke-linecap:square;stroke-opacity:0.2;stroke-width:0.8;"/>
     </g>
     <g id="line2d_44">
      <g>
       <use style="stroke:#000000;stroke-width:0.6;" x="50.629609" xlink:href="#m69a510b0be" y="362.090944"/>
      </g>
     </g>
    </g>
    <g id="ytick_5">
     <g id="line2d_45">
      <path clip-path="url(#pb809cd157e)" d="M 50.629609 348.533868 
L 441.264805 348.533868 
" style="fill:none;stroke:#b0b0b0;stroke-linecap:square;stroke-opacity:0.2;stroke-width:0.8;"/>
     </g>
     <g id="line2d_46">
      <g>
       <use style="stroke:#000000;stroke-width:0.6;" x="50.629609" xlink:href="#m69a510b0be" y="348.533868"/>
      </g>
     </g>
    </g>
    <g id="ytick_6">
     <g id="line2d_47">
      <path clip-path="url(#pb809cd157e)" d="M 50.629609 337.071524 
L 441.264805 337.071524 
" style="fill:none;stroke:#b0b0b0;stroke-linecap:square;stroke-opacity:0.2;stroke-width:0.8;"/>
     </g>
     <g id="line2d_48">
      <g>
       <use style="stroke:#000000;stroke-width:0.6;" x="50.629609" xlink:href="#m69a510b0be" y="337.071524"/>
      </g>
     </g>
    </g>
    <g id="ytick_7">
     <g id="line2d_49">
      <path clip-path="url(#pb809cd157e)" d="M 50.629609 327.142389 
L 441.264805 327.142389 
" style="fill:none;stroke:#b0b0b0;stroke-linecap:square;stroke-opacity:0.2;stroke-width:0.8;"/>
     </g>
     <g id="line2d_50">
      <g>
       <use style="stroke:#000000;stroke-width:0.6;" x="50.629609" xlink:href="#m69a510b0be" y="327.142389"/>
      </g>
     </g>
    </g>
    <g id="ytick_8">
     <g id="line2d_51">
      <path clip-path="url(#pb809cd157e)" d="M 50.629609 318.384272 
L 441.264805 318.384272 
" style="fill:none;stroke:#b0b0b0;stroke-linecap:square;stroke-opacity:0.2;stroke-width:0.8;"/>
     </g>
     <g id="line2d_52">
      <g>
       <use style="stroke:#000000;stroke-width:0.6;" x="50.629609" xlink:href="#m69a510b0be" y="318.384272"/>
      </g>
     </g>
    </g>
    <g id="ytick_9">
     <g id="line2d_53">
      <path clip-path="url(#pb809cd157e)" d="M 50.629609 259.008794 
L 441.264805 259.008794 
" style="fill:none;stroke:#b0b0b0;stroke-linecap:square;stroke-opacity:0.2;stroke-width:0.8;"/>
     </g>
     <g id="line2d_54">
      <g>
       <use style="stroke:#000000;stroke-width:0.6;" x="50.629609" xlink:href="#m69a510b0be" y="259.008794"/>
      </g>
     </g>
    </g>
    <g id="ytick_10">
     <g id="line2d_55">
      <path clip-path="url(#pb809cd157e)" d="M 50.629609 228.859198 
L 441.264805 228.859198 
" style="fill:none;stroke:#b0b0b0;stroke-linecap:square;stroke-opacity:0.2;stroke-width:0.8;"/>
     </g>
     <g id="line2d_56">
      <g>
       <use style="stroke:#000000;stroke-width:0.6;" x="50.629609" xlink:href="#m69a510b0be" y="228.859198"/>
      </g>
     </g>
    </g>
    <g id="ytick_11">
     <g id="line2d_57">
      <path clip-path="url(#pb809cd157e)" d="M 50.629609 207.467719 
L 441.264805 207.467719 
" style="fill:none;stroke:#b0b0b0;stroke-linecap:square;stroke-opacity:0.2;stroke-width:0.8;"/>
     </g>
     <g id="line2d_58">
      <g>
       <use style="stroke:#000000;stroke-width:0.6;" x="50.629609" xlink:href="#m69a510b0be" y="207.467719"/>
      </g>
     </g>
    </g>
    <g id="ytick_12">
     <g id="line2d_59">
      <path clip-path="url(#pb809cd157e)" d="M 50.629609 190.875199 
L 441.264805 190.875199 
" style="fill:none;stroke:#b0b0b0;stroke-linecap:square;stroke-opacity:0.2;stroke-width:0.8;"/>
     </g>
     <g id="line2d_60">
      <g>
       <use style="stroke:#000000;stroke-width:0.6;" x="50.629609" xlink:href="#m69a510b0be" y="190.875199"/>
      </g>
     </g>
    </g>
    <g id="ytick_13">
     <g id="line2d_61">
      <path clip-path="url(#pb809cd157e)" d="M 50.629609 177.318123 
L 441.264805 177.318123 
" style="fill:none;stroke:#b0b0b0;stroke-linecap:square;stroke-opacity:0.2;stroke-width:0.8;"/>
     </g>
     <g id="line2d_62">
      <g>
       <use style="stroke:#000000;stroke-width:0.6;" x="50.629609" xlink:href="#m69a510b0be" y="177.318123"/>
      </g>
     </g>
    </g>
    <g id="ytick_14">
     <g id="line2d_63">
      <path clip-path="url(#pb809cd157e)" d="M 50.629609 165.855778 
L 441.264805 165.855778 
" style="fill:none;stroke:#b0b0b0;stroke-linecap:square;stroke-opacity:0.2;stroke-width:0.8;"/>
     </g>
     <g id="line2d_64">
      <g>
       <use style="stroke:#000000;stroke-width:0.6;" x="50.629609" xlink:href="#m69a510b0be" y="165.855778"/>
      </g>
     </g>
    </g>
    <g id="ytick_15">
     <g id="line2d_65">
      <path clip-path="url(#pb809cd157e)" d="M 50.629609 155.926644 
L 441.264805 155.926644 
" style="fill:none;stroke:#b0b0b0;stroke-linecap:square;stroke-opacity:0.2;stroke-width:0.8;"/>
     </g>
     <g id="line2d_66">
      <g>
       <use style="stroke:#000000;stroke-width:0.6;" x="50.629609" xlink:href="#m69a510b0be" y="155.926644"/>
      </g>
     </g>
    </g>
    <g id="ytick_16">
     <g id="line2d_67">
      <path clip-path="url(#pb809cd157e)" d="M 50.629609 147.168527 
L 441.264805 147.168527 
" style="fill:none;stroke:#b0b0b0;stroke-linecap:square;stroke-opacity:0.2;stroke-width:0.8;"/>
     </g>
     <g id="line2d_68">
      <g>
       <use style="stroke:#000000;stroke-width:0.6;" x="50.629609" xlink:href="#m69a510b0be" y="147.168527"/>
      </g>
     </g>
    </g>
    <g id="ytick_17">
     <g id="line2d_69">
      <path clip-path="url(#pb809cd157e)" d="M 50.629609 87.793049 
L 441.264805 87.793049 
" style="fill:none;stroke:#b0b0b0;stroke-linecap:square;stroke-opacity:0.2;stroke-width:0.8;"/>
     </g>
     <g id="line2d_70">
      <g>
       <use style="stroke:#000000;stroke-width:0.6;" x="50.629609" xlink:href="#m69a510b0be" y="87.793049"/>
      </g>
     </g>
    </g>
    <g id="ytick_18">
     <g id="line2d_71">
      <path clip-path="url(#pb809cd157e)" d="M 50.629609 57.643453 
L 441.264805 57.643453 
" style="fill:none;stroke:#b0b0b0;stroke-linecap:square;stroke-opacity:0.2;stroke-width:0.8;"/>
     </g>
     <g id="line2d_72">
      <g>
       <use style="stroke:#000000;stroke-width:0.6;" x="50.629609" xlink:href="#m69a510b0be" y="57.643453"/>
      </g>
     </g>
    </g>
    <g id="ytick_19">
     <g id="line2d_73">
      <path clip-path="url(#pb809cd157e)" d="M 50.629609 36.251974 
L 441.264805 36.251974 
" style="fill:none;stroke:#b0b0b0;stroke-linecap:square;stroke-opacity:0.2;stroke-width:0.8;"/>
     </g>
     <g id="line2d_74">
      <g>
       <use style="stroke:#000000;stroke-width:0.6;" x="50.629609" xlink:href="#m69a510b0be" y="36.251974"/>
      </g>
     </g>
    </g>
    <g id="text_6">
     <!-- GODR (mM per OD) -->
     <defs>
      <path d="M 39.40625 66.21875 
Q 28.65625 66.21875 22.328125 58.203125 
Q 16.015625 50.203125 16.015625 36.375 
Q 16.015625 22.609375 22.328125 14.59375 
Q 28.65625 6.59375 39.40625 6.59375 
Q 50.140625 6.59375 56.421875 14.59375 
Q 62.703125 22.609375 62.703125 36.375 
Q 62.703125 50.203125 56.421875 58.203125 
Q 50.140625 66.21875 39.40625 66.21875 
z
M 39.40625 74.21875 
Q 54.734375 74.21875 63.90625 63.9375 
Q 73.09375 53.65625 73.09375 36.375 
Q 73.09375 19.140625 63.90625 8.859375 
Q 54.734375 -1.421875 39.40625 -1.421875 
Q 24.03125 -1.421875 14.8125 8.828125 
Q 5.609375 19.09375 5.609375 36.375 
Q 5.609375 53.65625 14.8125 63.9375 
Q 24.03125 74.21875 39.40625 74.21875 
z
" id="DejaVuSans-79"/>
      <path d="M 9.8125 72.90625 
L 24.515625 72.90625 
L 43.109375 23.296875 
L 61.8125 72.90625 
L 76.515625 72.90625 
L 76.515625 0 
L 66.890625 0 
L 66.890625 64.015625 
L 48.09375 14.015625 
L 38.1875 14.015625 
L 19.390625 64.015625 
L 19.390625 0 
L 9.8125 0 
z
" id="DejaVuSans-77"/>
     </defs>
     <g transform="translate(19.949922 257.629688)rotate(-90)scale(0.1 -0.1)">
      <use xlink:href="#DejaVuSans-71"/>
      <use x="77.490234" xlink:href="#DejaVuSans-79"/>
      <use x="156.201172" xlink:href="#DejaVuSans-68"/>
      <use x="233.203125" xlink:href="#DejaVuSans-82"/>
      <use x="302.685547" xlink:href="#DejaVuSans-32"/>
      <use x="334.472656" xlink:href="#DejaVuSans-40"/>
      <use x="373.486328" xlink:href="#DejaVuSans-109"/>
      <use x="470.898438" xlink:href="#DejaVuSans-77"/>
      <use x="557.177734" xlink:href="#DejaVuSans-32"/>
      <use x="588.964844" xlink:href="#DejaVuSans-112"/>
      <use x="652.441406" xlink:href="#DejaVuSans-101"/>
      <use x="713.964844" xlink:href="#DejaVuSans-114"/>
      <use x="755.078125" xlink:href="#DejaVuSans-32"/>
      <use x="786.865234" xlink:href="#DejaVuSans-79"/>
      <use x="865.576172" xlink:href="#DejaVuSans-68"/>
      <use x="942.578125" xlink:href="#DejaVuSans-41"/>
     </g>
    </g>
   </g>
   <g id="line2d_75">
    <path clip-path="url(#pb809cd157e)" d="M 68.385755 356.377666 
L 423.508659 46.868182 
" style="fill:none;stroke:#000000;stroke-dasharray:5.55,2.4;stroke-dashoffset:0;stroke-width:1.5;"/>
   </g>
   <g id="line2d_76">
    <path clip-path="url(#pb809cd157e)" d="M 258.345496 224.730633 
" style="fill:none;"/>
    <defs>
     <path d="M -5 5 
L 5 5 
L 5 -5 
L -5 -5 
z
" id="m3291d117c7" style="stroke:#66a488;stroke-linejoin:miter;"/>
    </defs>
    <g clip-path="url(#pb809cd157e)">
     <use style="fill:#66a488;stroke:#66a488;stroke-linejoin:miter;" x="258.345496" xlink:href="#m3291d117c7" y="224.730633"/>
    </g>
   </g>
   <g id="line2d_77">
    <path clip-path="url(#pb809cd157e)" d="M 70.982605 370.231818 
" style="fill:none;"/>
    <defs>
     <path d="M -5 5 
L 5 5 
L 5 -5 
L -5 -5 
z
" id="m79b605b712" style="stroke:#4991c9;stroke-linejoin:miter;"/>
    </defs>
    <g clip-path="url(#pb809cd157e)">
     <use style="fill:#4991c9;stroke:#4991c9;stroke-linejoin:miter;" x="70.982605" xlink:href="#m79b605b712" y="370.231818"/>
    </g>
   </g>
   <g id="line2d_78">
    <path clip-path="url(#pb809cd157e)" d="M 418.748547 60.722334 
" style="fill:none;"/>
    <defs>
     <path d="M 0 5 
C 1.326016 5 2.597899 4.473168 3.535534 3.535534 
C 4.473168 2.597899 5 1.326016 5 0 
C 5 -1.326016 4.473168 -2.597899 3.535534 -3.535534 
C 2.597899 -4.473168 1.326016 -5 0 -5 
C -1.326016 -5 -2.597899 -4.473168 -3.535534 -3.535534 
C -4.473168 -2.597899 -5 -1.326016 -5 0 
C -5 1.326016 -4.473168 2.597899 -3.535534 3.535534 
C -2.597899 4.473168 -1.326016 5 0 5 
z
" id="m0c686f7dec" style="stroke:#cc9f68;"/>
    </defs>
    <g clip-path="url(#pb809cd157e)">
     <use style="fill:#cc9f68;stroke:#cc9f68;" x="418.748547" xlink:href="#m0c686f7dec" y="60.722334"/>
    </g>
   </g>
   <g id="line2d_79">
    <path clip-path="url(#pb809cd157e)" d="M 268.393184 173.164636 
" style="fill:none;"/>
    <defs>
     <path d="M -5 5 
L 5 5 
L 5 -5 
L -5 -5 
z
" id="m50e78206e1" style="stroke:#cc9f68;stroke-linejoin:miter;"/>
    </defs>
    <g clip-path="url(#pb809cd157e)">
     <use style="fill:#cc9f68;stroke:#cc9f68;stroke-linejoin:miter;" x="268.393184" xlink:href="#m50e78206e1" y="173.164636"/>
    </g>
   </g>
   <g id="line2d_80">
    <path clip-path="url(#pb809cd157e)" d="M 352.616456 66.232605 
" style="fill:none;"/>
    <defs>
     <path d="M 0 5 
C 1.326016 5 2.597899 4.473168 3.535534 3.535534 
C 4.473168 2.597899 5 1.326016 5 0 
C 5 -1.326016 4.473168 -2.597899 3.535534 -3.535534 
C 2.597899 -4.473168 1.326016 -5 0 -5 
C -1.326016 -5 -2.597899 -4.473168 -3.535534 -3.535534 
C -4.473168 -2.597899 -5 -1.326016 -5 0 
C -5 1.326016 -4.473168 2.597899 -3.535534 3.535534 
C -2.597899 4.473168 -1.326016 5 0 5 
z
" id="m3091a75508" style="stroke:#d87881;"/>
    </defs>
    <g clip-path="url(#pb809cd157e)">
     <use style="fill:#d87881;stroke:#d87881;" x="352.616456" xlink:href="#m3091a75508" y="66.232605"/>
    </g>
   </g>
   <g id="line2d_81">
    <path clip-path="url(#pb809cd157e)" d="M 196.599363 248.885135 
" style="fill:none;"/>
    <defs>
     <path d="M -5 5 
L 5 5 
L 5 -5 
L -5 -5 
z
" id="madfb1d15bf" style="stroke:#d87881;stroke-linejoin:miter;"/>
    </defs>
    <g clip-path="url(#pb809cd157e)">
     <use style="fill:#d87881;stroke:#d87881;stroke-linejoin:miter;" x="196.599363" xlink:href="#madfb1d15bf" y="248.885135"/>
    </g>
   </g>
   <g id="line2d_82">
    <path clip-path="url(#pb809cd157e)" d="M 345.281484 69.499306 
" style="fill:none;"/>
    <defs>
     <path d="M 0 5 
C 1.326016 5 2.597899 4.473168 3.535534 3.535534 
C 4.473168 2.597899 5 1.326016 5 0 
C 5 -1.326016 4.473168 -2.597899 3.535534 -3.535534 
C 2.597899 -4.473168 1.326016 -5 0 -5 
C -1.326016 -5 -2.597899 -4.473168 -3.535534 -3.535534 
C -4.473168 -2.597899 -5 -1.326016 -5 0 
C -5 1.326016 -4.473168 2.597899 -3.535534 3.535534 
C -2.597899 4.473168 -1.326016 5 0 5 
z
" id="m30d6eb5fa2" style="stroke:#a381bd;"/>
    </defs>
    <g clip-path="url(#pb809cd157e)">
     <use style="fill:#a381bd;stroke:#a381bd;" x="345.281484" xlink:href="#m30d6eb5fa2" y="69.499306"/>
    </g>
   </g>
   <g id="line2d_83">
    <path clip-path="url(#pb809cd157e)" d="M 135.235228 330.991093 
" style="fill:none;"/>
    <defs>
     <path d="M -5 5 
L 5 5 
L 5 -5 
L -5 -5 
z
" id="m11c865b069" style="stroke:#a381bd;stroke-linejoin:miter;"/>
    </defs>
    <g clip-path="url(#pb809cd157e)">
     <use style="fill:#a381bd;stroke:#a381bd;stroke-linejoin:miter;" x="135.235228" xlink:href="#m11c865b069" y="330.991093"/>
    </g>
   </g>
   <g id="patch_3">
    <path d="M 50.629609 386.4 
L 50.629609 30.7 
" style="fill:none;stroke:#000000;stroke-linecap:square;stroke-linejoin:miter;stroke-width:0.8;"/>
   </g>
   <g id="patch_4">
    <path d="M 441.264805 386.4 
L 441.264805 30.7 
" style="fill:none;stroke:#000000;stroke-linecap:square;stroke-linejoin:miter;stroke-width:0.8;"/>
   </g>
   <g id="patch_5">
    <path d="M 50.629609 386.4 
L 441.264805 386.4 
" style="fill:none;stroke:#000000;stroke-linecap:square;stroke-linejoin:miter;stroke-width:0.8;"/>
   </g>
   <g id="patch_6">
    <path d="M 50.629609 30.7 
L 441.264805 30.7 
" style="fill:none;stroke:#000000;stroke-linecap:square;stroke-linejoin:miter;stroke-width:0.8;"/>
   </g>
   <g id="text_7">
    <!-- $r^2$ = 0.96, RMSE = 0.39 -->
    <defs>
     <path d="M 44.578125 46.390625 
Q 43.21875 47.125 41.453125 47.515625 
Q 39.703125 47.90625 37.703125 47.90625 
Q 30.515625 47.90625 25.140625 42.453125 
Q 19.78125 37.015625 18.015625 27.875 
L 12.5 0 
L 3.515625 0 
L 14.203125 54.6875 
L 23.1875 54.6875 
L 21.484375 46.1875 
Q 25.046875 50.921875 30 53.453125 
Q 34.96875 56 40.578125 56 
Q 42.046875 56 43.453125 55.828125 
Q 44.875 55.671875 46.296875 55.28125 
z
" id="DejaVuSans-Oblique-114"/>
     <path d="M 19.1875 8.296875 
L 53.609375 8.296875 
L 53.609375 0 
L 7.328125 0 
L 7.328125 8.296875 
Q 12.9375 14.109375 22.625 23.890625 
Q 32.328125 33.6875 34.8125 36.53125 
Q 39.546875 41.84375 41.421875 45.53125 
Q 43.3125 49.21875 43.3125 52.78125 
Q 43.3125 58.59375 39.234375 62.25 
Q 35.15625 65.921875 28.609375 65.921875 
Q 23.96875 65.921875 18.8125 64.3125 
Q 13.671875 62.703125 7.8125 59.421875 
L 7.8125 69.390625 
Q 13.765625 71.78125 18.9375 73 
Q 24.125 74.21875 28.421875 74.21875 
Q 39.75 74.21875 46.484375 68.546875 
Q 53.21875 62.890625 53.21875 53.421875 
Q 53.21875 48.921875 51.53125 44.890625 
Q 49.859375 40.875 45.40625 35.40625 
Q 44.1875 33.984375 37.640625 27.21875 
Q 31.109375 20.453125 19.1875 8.296875 
z
" id="DejaVuSans-50"/>
     <path d="M 10.59375 45.40625 
L 73.1875 45.40625 
L 73.1875 37.203125 
L 10.59375 37.203125 
z
M 10.59375 25.484375 
L 73.1875 25.484375 
L 73.1875 17.1875 
L 10.59375 17.1875 
z
" id="DejaVuSans-61"/>
     <path d="M 10.6875 12.40625 
L 21 12.40625 
L 21 0 
L 10.6875 0 
z
" id="DejaVuSans-46"/>
     <path d="M 10.984375 1.515625 
L 10.984375 10.5 
Q 14.703125 8.734375 18.5 7.8125 
Q 22.3125 6.890625 25.984375 6.890625 
Q 35.75 6.890625 40.890625 13.453125 
Q 46.046875 20.015625 46.78125 33.40625 
Q 43.953125 29.203125 39.59375 26.953125 
Q 35.25 24.703125 29.984375 24.703125 
Q 19.046875 24.703125 12.671875 31.3125 
Q 6.296875 37.9375 6.296875 49.421875 
Q 6.296875 60.640625 12.9375 67.421875 
Q 19.578125 74.21875 30.609375 74.21875 
Q 43.265625 74.21875 49.921875 64.515625 
Q 56.59375 54.828125 56.59375 36.375 
Q 56.59375 19.140625 48.40625 8.859375 
Q 40.234375 -1.421875 26.421875 -1.421875 
Q 22.703125 -1.421875 18.890625 -0.6875 
Q 15.09375 0.046875 10.984375 1.515625 
z
M 30.609375 32.421875 
Q 37.25 32.421875 41.125 36.953125 
Q 45.015625 41.5 45.015625 49.421875 
Q 45.015625 57.28125 41.125 61.84375 
Q 37.25 66.40625 30.609375 66.40625 
Q 23.96875 66.40625 20.09375 61.84375 
Q 16.21875 57.28125 16.21875 49.421875 
Q 16.21875 41.5 20.09375 36.953125 
Q 23.96875 32.421875 30.609375 32.421875 
z
" id="DejaVuSans-57"/>
     <path d="M 33.015625 40.375 
Q 26.375 40.375 22.484375 35.828125 
Q 18.609375 31.296875 18.609375 23.390625 
Q 18.609375 15.53125 22.484375 10.953125 
Q 26.375 6.390625 33.015625 6.390625 
Q 39.65625 6.390625 43.53125 10.953125 
Q 47.40625 15.53125 47.40625 23.390625 
Q 47.40625 31.296875 43.53125 35.828125 
Q 39.65625 40.375 33.015625 40.375 
z
M 52.59375 71.296875 
L 52.59375 62.3125 
Q 48.875 64.0625 45.09375 64.984375 
Q 41.3125 65.921875 37.59375 65.921875 
Q 27.828125 65.921875 22.671875 59.328125 
Q 17.53125 52.734375 16.796875 39.40625 
Q 19.671875 43.65625 24.015625 45.921875 
Q 28.375 48.1875 33.59375 48.1875 
Q 44.578125 48.1875 50.953125 41.515625 
Q 57.328125 34.859375 57.328125 23.390625 
Q 57.328125 12.15625 50.6875 5.359375 
Q 44.046875 -1.421875 33.015625 -1.421875 
Q 20.359375 -1.421875 13.671875 8.265625 
Q 6.984375 17.96875 6.984375 36.375 
Q 6.984375 53.65625 15.1875 63.9375 
Q 23.390625 74.21875 37.203125 74.21875 
Q 40.921875 74.21875 44.703125 73.484375 
Q 48.484375 72.75 52.59375 71.296875 
z
" id="DejaVuSans-54"/>
     <path d="M 11.71875 12.40625 
L 22.015625 12.40625 
L 22.015625 4 
L 14.015625 -11.625 
L 7.71875 -11.625 
L 11.71875 4 
z
" id="DejaVuSans-44"/>
     <path d="M 53.515625 70.515625 
L 53.515625 60.890625 
Q 47.90625 63.578125 42.921875 64.890625 
Q 37.9375 66.21875 33.296875 66.21875 
Q 25.25 66.21875 20.875 63.09375 
Q 16.5 59.96875 16.5 54.203125 
Q 16.5 49.359375 19.40625 46.890625 
Q 22.3125 44.4375 30.421875 42.921875 
L 36.375 41.703125 
Q 47.40625 39.59375 52.65625 34.296875 
Q 57.90625 29 57.90625 20.125 
Q 57.90625 9.515625 50.796875 4.046875 
Q 43.703125 -1.421875 29.984375 -1.421875 
Q 24.8125 -1.421875 18.96875 -0.25 
Q 13.140625 0.921875 6.890625 3.21875 
L 6.890625 13.375 
Q 12.890625 10.015625 18.65625 8.296875 
Q 24.421875 6.59375 29.984375 6.59375 
Q 38.421875 6.59375 43.015625 9.90625 
Q 47.609375 13.234375 47.609375 19.390625 
Q 47.609375 24.75 44.3125 27.78125 
Q 41.015625 30.8125 33.5 32.328125 
L 27.484375 33.5 
Q 16.453125 35.6875 11.515625 40.375 
Q 6.59375 45.0625 6.59375 53.421875 
Q 6.59375 63.09375 13.40625 68.65625 
Q 20.21875 74.21875 32.171875 74.21875 
Q 37.3125 74.21875 42.625 73.28125 
Q 47.953125 72.359375 53.515625 70.515625 
z
" id="DejaVuSans-83"/>
     <path d="M 9.8125 72.90625 
L 55.90625 72.90625 
L 55.90625 64.59375 
L 19.671875 64.59375 
L 19.671875 43.015625 
L 54.390625 43.015625 
L 54.390625 34.71875 
L 19.671875 34.71875 
L 19.671875 8.296875 
L 56.78125 8.296875 
L 56.78125 0 
L 9.8125 0 
z
" id="DejaVuSans-69"/>
     <path d="M 40.578125 39.3125 
Q 47.65625 37.796875 51.625 33 
Q 55.609375 28.21875 55.609375 21.1875 
Q 55.609375 10.40625 48.1875 4.484375 
Q 40.765625 -1.421875 27.09375 -1.421875 
Q 22.515625 -1.421875 17.65625 -0.515625 
Q 12.796875 0.390625 7.625 2.203125 
L 7.625 11.71875 
Q 11.71875 9.328125 16.59375 8.109375 
Q 21.484375 6.890625 26.8125 6.890625 
Q 36.078125 6.890625 40.9375 10.546875 
Q 45.796875 14.203125 45.796875 21.1875 
Q 45.796875 27.640625 41.28125 31.265625 
Q 36.765625 34.90625 28.71875 34.90625 
L 20.21875 34.90625 
L 20.21875 43.015625 
L 29.109375 43.015625 
Q 36.375 43.015625 40.234375 45.921875 
Q 44.09375 48.828125 44.09375 54.296875 
Q 44.09375 59.90625 40.109375 62.90625 
Q 36.140625 65.921875 28.71875 65.921875 
Q 24.65625 65.921875 20.015625 65.03125 
Q 15.375 64.15625 9.8125 62.3125 
L 9.8125 71.09375 
Q 15.4375 72.65625 20.34375 73.4375 
Q 25.25 74.21875 29.59375 74.21875 
Q 40.828125 74.21875 47.359375 69.109375 
Q 53.90625 64.015625 53.90625 55.328125 
Q 53.90625 49.265625 50.4375 45.09375 
Q 46.96875 40.921875 40.578125 39.3125 
z
" id="DejaVuSans-51"/>
    </defs>
    <g transform="translate(175.147207 24.7)scale(0.12 -0.12)">
     <use transform="translate(0 0.765625)" xlink:href="#DejaVuSans-Oblique-114"/>
     <use transform="translate(45.763177 39.046875)scale(0.7)" xlink:href="#DejaVuSans-50"/>
     <use transform="translate(93.033685 0.765625)" xlink:href="#DejaVuSans-32"/>
     <use transform="translate(124.820794 0.765625)" xlink:href="#DejaVuSans-61"/>
     <use transform="translate(208.609857 0.765625)" xlink:href="#DejaVuSans-32"/>
     <use transform="translate(240.396966 0.765625)" xlink:href="#DejaVuSans-48"/>
     <use transform="translate(304.020013 0.765625)" xlink:href="#DejaVuSans-46"/>
     <use transform="translate(335.807122 0.765625)" xlink:href="#DejaVuSans-57"/>
     <use transform="translate(399.430169 0.765625)" xlink:href="#DejaVuSans-54"/>
     <use transform="translate(463.053216 0.765625)" xlink:href="#DejaVuSans-44"/>
     <use transform="translate(494.840326 0.765625)" xlink:href="#DejaVuSans-32"/>
     <use transform="translate(526.627435 0.765625)" xlink:href="#DejaVuSans-82"/>
     <use transform="translate(596.109857 0.765625)" xlink:href="#DejaVuSans-77"/>
     <use transform="translate(682.389154 0.765625)" xlink:href="#DejaVuSans-83"/>
     <use transform="translate(745.865716 0.765625)" xlink:href="#DejaVuSans-69"/>
     <use transform="translate(809.04931 0.765625)" xlink:href="#DejaVuSans-32"/>
     <use transform="translate(840.836419 0.765625)" xlink:href="#DejaVuSans-61"/>
     <use transform="translate(924.625482 0.765625)" xlink:href="#DejaVuSans-32"/>
     <use transform="translate(956.412591 0.765625)" xlink:href="#DejaVuSans-48"/>
     <use transform="translate(1020.035638 0.765625)" xlink:href="#DejaVuSans-46"/>
     <use transform="translate(1051.822747 0.765625)" xlink:href="#DejaVuSans-51"/>
     <use transform="translate(1115.445794 0.765625)" xlink:href="#DejaVuSans-57"/>
    </g>
   </g>
   <g id="legend_1">
    <g id="patch_7">
     <path d="M 205.100742 381.4 
L 434.264805 381.4 
Q 436.264805 381.4 436.264805 379.4 
L 436.264805 262.975 
Q 436.264805 260.975 434.264805 260.975 
L 205.100742 260.975 
Q 203.100742 260.975 203.100742 262.975 
L 203.100742 379.4 
Q 203.100742 381.4 205.100742 381.4 
z
" style="fill:#ffffff;opacity:0.8;stroke:#cccccc;stroke-linejoin:miter;"/>
    </g>
    <g id="line2d_84">
     <path d="M 207.100742 269.073438 
L 227.100742 269.073438 
" style="fill:none;"/>
    </g>
    <g id="line2d_85">
     <g>
      <use style="fill:#66a488;stroke:#66a488;stroke-linejoin:miter;" x="217.100742" xlink:href="#m3291d117c7" y="269.073438"/>
     </g>
    </g>
    <g id="text_8">
     <!-- Strain E1: succinate -->
     <defs>
      <path d="M 18.3125 70.21875 
L 18.3125 54.6875 
L 36.8125 54.6875 
L 36.8125 47.703125 
L 18.3125 47.703125 
L 18.3125 18.015625 
Q 18.3125 11.328125 20.140625 9.421875 
Q 21.96875 7.515625 27.59375 7.515625 
L 36.8125 7.515625 
L 36.8125 0 
L 27.59375 0 
Q 17.1875 0 13.234375 3.875 
Q 9.28125 7.765625 9.28125 18.015625 
L 9.28125 47.703125 
L 2.6875 47.703125 
L 2.6875 54.6875 
L 9.28125 54.6875 
L 9.28125 70.21875 
z
" id="DejaVuSans-116"/>
      <path d="M 34.28125 27.484375 
Q 23.390625 27.484375 19.1875 25 
Q 14.984375 22.515625 14.984375 16.5 
Q 14.984375 11.71875 18.140625 8.90625 
Q 21.296875 6.109375 26.703125 6.109375 
Q 34.1875 6.109375 38.703125 11.40625 
Q 43.21875 16.703125 43.21875 25.484375 
L 43.21875 27.484375 
z
M 52.203125 31.203125 
L 52.203125 0 
L 43.21875 0 
L 43.21875 8.296875 
Q 40.140625 3.328125 35.546875 0.953125 
Q 30.953125 -1.421875 24.3125 -1.421875 
Q 15.921875 -1.421875 10.953125 3.296875 
Q 6 8.015625 6 15.921875 
Q 6 25.140625 12.171875 29.828125 
Q 18.359375 34.515625 30.609375 34.515625 
L 43.21875 34.515625 
L 43.21875 35.40625 
Q 43.21875 41.609375 39.140625 45 
Q 35.0625 48.390625 27.6875 48.390625 
Q 23 48.390625 18.546875 47.265625 
Q 14.109375 46.140625 10.015625 43.890625 
L 10.015625 52.203125 
Q 14.9375 54.109375 19.578125 55.046875 
Q 24.21875 56 28.609375 56 
Q 40.484375 56 46.34375 49.84375 
Q 52.203125 43.703125 52.203125 31.203125 
z
" id="DejaVuSans-97"/>
      <path d="M 9.421875 54.6875 
L 18.40625 54.6875 
L 18.40625 0 
L 9.421875 0 
z
M 9.421875 75.984375 
L 18.40625 75.984375 
L 18.40625 64.59375 
L 9.421875 64.59375 
z
" id="DejaVuSans-105"/>
      <path d="M 54.890625 33.015625 
L 54.890625 0 
L 45.90625 0 
L 45.90625 32.71875 
Q 45.90625 40.484375 42.875 44.328125 
Q 39.84375 48.1875 33.796875 48.1875 
Q 26.515625 48.1875 22.3125 43.546875 
Q 18.109375 38.921875 18.109375 30.90625 
L 18.109375 0 
L 9.078125 0 
L 9.078125 54.6875 
L 18.109375 54.6875 
L 18.109375 46.1875 
Q 21.34375 51.125 25.703125 53.5625 
Q 30.078125 56 35.796875 56 
Q 45.21875 56 50.046875 50.171875 
Q 54.890625 44.34375 54.890625 33.015625 
z
" id="DejaVuSans-110"/>
      <path d="M 11.71875 12.40625 
L 22.015625 12.40625 
L 22.015625 0 
L 11.71875 0 
z
M 11.71875 51.703125 
L 22.015625 51.703125 
L 22.015625 39.3125 
L 11.71875 39.3125 
z
" id="DejaVuSans-58"/>
      <path d="M 44.28125 53.078125 
L 44.28125 44.578125 
Q 40.484375 46.53125 36.375 47.5 
Q 32.28125 48.484375 27.875 48.484375 
Q 21.1875 48.484375 17.84375 46.4375 
Q 14.5 44.390625 14.5 40.28125 
Q 14.5 37.15625 16.890625 35.375 
Q 19.28125 33.59375 26.515625 31.984375 
L 29.59375 31.296875 
Q 39.15625 29.25 43.1875 25.515625 
Q 47.21875 21.78125 47.21875 15.09375 
Q 47.21875 7.46875 41.1875 3.015625 
Q 35.15625 -1.421875 24.609375 -1.421875 
Q 20.21875 -1.421875 15.453125 -0.5625 
Q 10.6875 0.296875 5.421875 2 
L 5.421875 11.28125 
Q 10.40625 8.6875 15.234375 7.390625 
Q 20.0625 6.109375 24.8125 6.109375 
Q 31.15625 6.109375 34.5625 8.28125 
Q 37.984375 10.453125 37.984375 14.40625 
Q 37.984375 18.0625 35.515625 20.015625 
Q 33.0625 21.96875 24.703125 23.78125 
L 21.578125 24.515625 
Q 13.234375 26.265625 9.515625 29.90625 
Q 5.8125 33.546875 5.8125 39.890625 
Q 5.8125 47.609375 11.28125 51.796875 
Q 16.75 56 26.8125 56 
Q 31.78125 56 36.171875 55.265625 
Q 40.578125 54.546875 44.28125 53.078125 
z
" id="DejaVuSans-115"/>
      <path d="M 8.5 21.578125 
L 8.5 54.6875 
L 17.484375 54.6875 
L 17.484375 21.921875 
Q 17.484375 14.15625 20.5 10.265625 
Q 23.53125 6.390625 29.59375 6.390625 
Q 36.859375 6.390625 41.078125 11.03125 
Q 45.3125 15.671875 45.3125 23.6875 
L 45.3125 54.6875 
L 54.296875 54.6875 
L 54.296875 0 
L 45.3125 0 
L 45.3125 8.40625 
Q 42.046875 3.421875 37.71875 1 
Q 33.40625 -1.421875 27.6875 -1.421875 
Q 18.265625 -1.421875 13.375 4.4375 
Q 8.5 10.296875 8.5 21.578125 
z
M 31.109375 56 
z
" id="DejaVuSans-117"/>
      <path d="M 48.78125 52.59375 
L 48.78125 44.1875 
Q 44.96875 46.296875 41.140625 47.34375 
Q 37.3125 48.390625 33.40625 48.390625 
Q 24.65625 48.390625 19.8125 42.84375 
Q 14.984375 37.3125 14.984375 27.296875 
Q 14.984375 17.28125 19.8125 11.734375 
Q 24.65625 6.203125 33.40625 6.203125 
Q 37.3125 6.203125 41.140625 7.25 
Q 44.96875 8.296875 48.78125 10.40625 
L 48.78125 2.09375 
Q 45.015625 0.34375 40.984375 -0.53125 
Q 36.96875 -1.421875 32.421875 -1.421875 
Q 20.0625 -1.421875 12.78125 6.34375 
Q 5.515625 14.109375 5.515625 27.296875 
Q 5.515625 40.671875 12.859375 48.328125 
Q 20.21875 56 33.015625 56 
Q 37.15625 56 41.109375 55.140625 
Q 45.0625 54.296875 48.78125 52.59375 
z
" id="DejaVuSans-99"/>
     </defs>
     <g transform="translate(235.100742 272.573438)scale(0.1 -0.1)">
      <use xlink:href="#DejaVuSans-83"/>
      <use x="63.476562" xlink:href="#DejaVuSans-116"/>
      <use x="102.685547" xlink:href="#DejaVuSans-114"/>
      <use x="143.798828" xlink:href="#DejaVuSans-97"/>
      <use x="205.078125" xlink:href="#DejaVuSans-105"/>
      <use x="232.861328" xlink:href="#DejaVuSans-110"/>
      <use x="296.240234" xlink:href="#DejaVuSans-32"/>
      <use x="328.027344" xlink:href="#DejaVuSans-69"/>
      <use x="391.210938" xlink:href="#DejaVuSans-49"/>
      <use x="454.833984" xlink:href="#DejaVuSans-58"/>
      <use x="488.525391" xlink:href="#DejaVuSans-32"/>
      <use x="520.3125" xlink:href="#DejaVuSans-115"/>
      <use x="572.412109" xlink:href="#DejaVuSans-117"/>
      <use x="635.791016" xlink:href="#DejaVuSans-99"/>
      <use x="690.771484" xlink:href="#DejaVuSans-99"/>
      <use x="745.751953" xlink:href="#DejaVuSans-105"/>
      <use x="773.535156" xlink:href="#DejaVuSans-110"/>
      <use x="836.914062" xlink:href="#DejaVuSans-97"/>
      <use x="898.193359" xlink:href="#DejaVuSans-116"/>
      <use x="937.402344" xlink:href="#DejaVuSans-101"/>
     </g>
    </g>
    <g id="line2d_86">
     <path d="M 207.100742 283.751563 
L 227.100742 283.751563 
" style="fill:none;"/>
    </g>
    <g id="line2d_87">
     <g>
      <use style="fill:#4991c9;stroke:#4991c9;stroke-linejoin:miter;" x="217.100742" xlink:href="#m79b605b712" y="283.751563"/>
     </g>
    </g>
    <g id="text_9">
     <!-- Strain E3*: succinate+glycerol+glycine -->
     <defs>
      <path d="M 47.015625 60.890625 
L 29.5 51.421875 
L 47.015625 41.890625 
L 44.1875 37.109375 
L 27.78125 47.015625 
L 27.78125 28.609375 
L 22.21875 28.609375 
L 22.21875 47.015625 
L 5.8125 37.109375 
L 2.984375 41.890625 
L 20.515625 51.421875 
L 2.984375 60.890625 
L 5.8125 65.71875 
L 22.21875 55.8125 
L 22.21875 74.21875 
L 27.78125 74.21875 
L 27.78125 55.8125 
L 44.1875 65.71875 
z
" id="DejaVuSans-42"/>
      <path d="M 46 62.703125 
L 46 35.5 
L 73.1875 35.5 
L 73.1875 27.203125 
L 46 27.203125 
L 46 0 
L 37.796875 0 
L 37.796875 27.203125 
L 10.59375 27.203125 
L 10.59375 35.5 
L 37.796875 35.5 
L 37.796875 62.703125 
z
" id="DejaVuSans-43"/>
      <path d="M 32.171875 -5.078125 
Q 28.375 -14.84375 24.75 -17.8125 
Q 21.140625 -20.796875 15.09375 -20.796875 
L 7.90625 -20.796875 
L 7.90625 -13.28125 
L 13.1875 -13.28125 
Q 16.890625 -13.28125 18.9375 -11.515625 
Q 21 -9.765625 23.484375 -3.21875 
L 25.09375 0.875 
L 2.984375 54.6875 
L 12.5 54.6875 
L 29.59375 11.921875 
L 46.6875 54.6875 
L 56.203125 54.6875 
z
" id="DejaVuSans-121"/>
     </defs>
     <g transform="translate(235.100742 287.251563)scale(0.1 -0.1)">
      <use xlink:href="#DejaVuSans-83"/>
      <use x="63.476562" xlink:href="#DejaVuSans-116"/>
      <use x="102.685547" xlink:href="#DejaVuSans-114"/>
      <use x="143.798828" xlink:href="#DejaVuSans-97"/>
      <use x="205.078125" xlink:href="#DejaVuSans-105"/>
      <use x="232.861328" xlink:href="#DejaVuSans-110"/>
      <use x="296.240234" xlink:href="#DejaVuSans-32"/>
      <use x="328.027344" xlink:href="#DejaVuSans-69"/>
      <use x="391.210938" xlink:href="#DejaVuSans-51"/>
      <use x="454.833984" xlink:href="#DejaVuSans-42"/>
      <use x="504.833984" xlink:href="#DejaVuSans-58"/>
      <use x="538.525391" xlink:href="#DejaVuSans-32"/>
      <use x="570.3125" xlink:href="#DejaVuSans-115"/>
      <use x="622.412109" xlink:href="#DejaVuSans-117"/>
      <use x="685.791016" xlink:href="#DejaVuSans-99"/>
      <use x="740.771484" xlink:href="#DejaVuSans-99"/>
      <use x="795.751953" xlink:href="#DejaVuSans-105"/>
      <use x="823.535156" xlink:href="#DejaVuSans-110"/>
      <use x="886.914062" xlink:href="#DejaVuSans-97"/>
      <use x="948.193359" xlink:href="#DejaVuSans-116"/>
      <use x="987.402344" xlink:href="#DejaVuSans-101"/>
      <use x="1048.925781" xlink:href="#DejaVuSans-43"/>
      <use x="1132.714844" xlink:href="#DejaVuSans-103"/>
      <use x="1196.191406" xlink:href="#DejaVuSans-108"/>
      <use x="1223.974609" xlink:href="#DejaVuSans-121"/>
      <use x="1283.154297" xlink:href="#DejaVuSans-99"/>
      <use x="1338.134766" xlink:href="#DejaVuSans-101"/>
      <use x="1399.658203" xlink:href="#DejaVuSans-114"/>
      <use x="1440.740234" xlink:href="#DejaVuSans-111"/>
      <use x="1501.921875" xlink:href="#DejaVuSans-108"/>
      <use x="1529.705078" xlink:href="#DejaVuSans-43"/>
      <use x="1613.494141" xlink:href="#DejaVuSans-103"/>
      <use x="1676.970703" xlink:href="#DejaVuSans-108"/>
      <use x="1704.753906" xlink:href="#DejaVuSans-121"/>
      <use x="1763.933594" xlink:href="#DejaVuSans-99"/>
      <use x="1818.914062" xlink:href="#DejaVuSans-105"/>
      <use x="1846.697266" xlink:href="#DejaVuSans-110"/>
      <use x="1910.076172" xlink:href="#DejaVuSans-101"/>
     </g>
    </g>
    <g id="line2d_88">
     <path d="M 207.100742 298.429688 
L 227.100742 298.429688 
" style="fill:none;"/>
    </g>
    <g id="line2d_89">
     <g>
      <use style="fill:#cc9f68;stroke:#cc9f68;" x="217.100742" xlink:href="#m0c686f7dec" y="298.429688"/>
     </g>
    </g>
    <g id="text_10">
     <!-- Strain P1: (no other carbon source) -->
     <defs>
      <path d="M 19.671875 64.796875 
L 19.671875 37.40625 
L 32.078125 37.40625 
Q 38.96875 37.40625 42.71875 40.96875 
Q 46.484375 44.53125 46.484375 51.125 
Q 46.484375 57.671875 42.71875 61.234375 
Q 38.96875 64.796875 32.078125 64.796875 
z
M 9.8125 72.90625 
L 32.078125 72.90625 
Q 44.34375 72.90625 50.609375 67.359375 
Q 56.890625 61.8125 56.890625 51.125 
Q 56.890625 40.328125 50.609375 34.8125 
Q 44.34375 29.296875 32.078125 29.296875 
L 19.671875 29.296875 
L 19.671875 0 
L 9.8125 0 
z
" id="DejaVuSans-80"/>
      <path d="M 54.890625 33.015625 
L 54.890625 0 
L 45.90625 0 
L 45.90625 32.71875 
Q 45.90625 40.484375 42.875 44.328125 
Q 39.84375 48.1875 33.796875 48.1875 
Q 26.515625 48.1875 22.3125 43.546875 
Q 18.109375 38.921875 18.109375 30.90625 
L 18.109375 0 
L 9.078125 0 
L 9.078125 75.984375 
L 18.109375 75.984375 
L 18.109375 46.1875 
Q 21.34375 51.125 25.703125 53.5625 
Q 30.078125 56 35.796875 56 
Q 45.21875 56 50.046875 50.171875 
Q 54.890625 44.34375 54.890625 33.015625 
z
" id="DejaVuSans-104"/>
      <path d="M 48.6875 27.296875 
Q 48.6875 37.203125 44.609375 42.84375 
Q 40.53125 48.484375 33.40625 48.484375 
Q 26.265625 48.484375 22.1875 42.84375 
Q 18.109375 37.203125 18.109375 27.296875 
Q 18.109375 17.390625 22.1875 11.75 
Q 26.265625 6.109375 33.40625 6.109375 
Q 40.53125 6.109375 44.609375 11.75 
Q 48.6875 17.390625 48.6875 27.296875 
z
M 18.109375 46.390625 
Q 20.953125 51.265625 25.265625 53.625 
Q 29.59375 56 35.59375 56 
Q 45.5625 56 51.78125 48.09375 
Q 58.015625 40.1875 58.015625 27.296875 
Q 58.015625 14.40625 51.78125 6.484375 
Q 45.5625 -1.421875 35.59375 -1.421875 
Q 29.59375 -1.421875 25.265625 0.953125 
Q 20.953125 3.328125 18.109375 8.203125 
L 18.109375 0 
L 9.078125 0 
L 9.078125 75.984375 
L 18.109375 75.984375 
z
" id="DejaVuSans-98"/>
     </defs>
     <g transform="translate(235.100742 301.929688)scale(0.1 -0.1)">
      <use xlink:href="#DejaVuSans-83"/>
      <use x="63.476562" xlink:href="#DejaVuSans-116"/>
      <use x="102.685547" xlink:href="#DejaVuSans-114"/>
      <use x="143.798828" xlink:href="#DejaVuSans-97"/>
      <use x="205.078125" xlink:href="#DejaVuSans-105"/>
      <use x="232.861328" xlink:href="#DejaVuSans-110"/>
      <use x="296.240234" xlink:href="#DejaVuSans-32"/>
      <use x="328.027344" xlink:href="#DejaVuSans-80"/>
      <use x="388.330078" xlink:href="#DejaVuSans-49"/>
      <use x="451.953125" xlink:href="#DejaVuSans-58"/>
      <use x="485.644531" xlink:href="#DejaVuSans-32"/>
      <use x="517.431641" xlink:href="#DejaVuSans-40"/>
      <use x="556.445312" xlink:href="#DejaVuSans-110"/>
      <use x="619.824219" xlink:href="#DejaVuSans-111"/>
      <use x="681.005859" xlink:href="#DejaVuSans-32"/>
      <use x="712.792969" xlink:href="#DejaVuSans-111"/>
      <use x="773.974609" xlink:href="#DejaVuSans-116"/>
      <use x="813.183594" xlink:href="#DejaVuSans-104"/>
      <use x="876.5625" xlink:href="#DejaVuSans-101"/>
      <use x="938.085938" xlink:href="#DejaVuSans-114"/>
      <use x="979.199219" xlink:href="#DejaVuSans-32"/>
      <use x="1010.986328" xlink:href="#DejaVuSans-99"/>
      <use x="1065.966797" xlink:href="#DejaVuSans-97"/>
      <use x="1127.246094" xlink:href="#DejaVuSans-114"/>
      <use x="1168.359375" xlink:href="#DejaVuSans-98"/>
      <use x="1231.835938" xlink:href="#DejaVuSans-111"/>
      <use x="1293.017578" xlink:href="#DejaVuSans-110"/>
      <use x="1356.396484" xlink:href="#DejaVuSans-32"/>
      <use x="1388.183594" xlink:href="#DejaVuSans-115"/>
      <use x="1440.283203" xlink:href="#DejaVuSans-111"/>
      <use x="1501.464844" xlink:href="#DejaVuSans-117"/>
      <use x="1564.84375" xlink:href="#DejaVuSans-114"/>
      <use x="1605.925781" xlink:href="#DejaVuSans-99"/>
      <use x="1660.90625" xlink:href="#DejaVuSans-101"/>
      <use x="1722.429688" xlink:href="#DejaVuSans-41"/>
     </g>
    </g>
    <g id="line2d_90">
     <path d="M 207.100742 313.107813 
L 227.100742 313.107813 
" style="fill:none;"/>
    </g>
    <g id="line2d_91">
     <g>
      <use style="fill:#cc9f68;stroke:#cc9f68;stroke-linejoin:miter;" x="217.100742" xlink:href="#m50e78206e1" y="313.107813"/>
     </g>
    </g>
    <g id="text_11">
     <!-- Strain P1: succinate -->
     <g transform="translate(235.100742 316.607813)scale(0.1 -0.1)">
      <use xlink:href="#DejaVuSans-83"/>
      <use x="63.476562" xlink:href="#DejaVuSans-116"/>
      <use x="102.685547" xlink:href="#DejaVuSans-114"/>
      <use x="143.798828" xlink:href="#DejaVuSans-97"/>
      <use x="205.078125" xlink:href="#DejaVuSans-105"/>
      <use x="232.861328" xlink:href="#DejaVuSans-110"/>
      <use x="296.240234" xlink:href="#DejaVuSans-32"/>
      <use x="328.027344" xlink:href="#DejaVuSans-80"/>
      <use x="388.330078" xlink:href="#DejaVuSans-49"/>
      <use x="451.953125" xlink:href="#DejaVuSans-58"/>
      <use x="485.644531" xlink:href="#DejaVuSans-32"/>
      <use x="517.431641" xlink:href="#DejaVuSans-115"/>
      <use x="569.53125" xlink:href="#DejaVuSans-117"/>
      <use x="632.910156" xlink:href="#DejaVuSans-99"/>
      <use x="687.890625" xlink:href="#DejaVuSans-99"/>
      <use x="742.871094" xlink:href="#DejaVuSans-105"/>
      <use x="770.654297" xlink:href="#DejaVuSans-110"/>
      <use x="834.033203" xlink:href="#DejaVuSans-97"/>
      <use x="895.3125" xlink:href="#DejaVuSans-116"/>
      <use x="934.521484" xlink:href="#DejaVuSans-101"/>
     </g>
    </g>
    <g id="line2d_92">
     <path d="M 207.100742 327.785938 
L 227.100742 327.785938 
" style="fill:none;"/>
    </g>
    <g id="line2d_93">
     <g>
      <use style="fill:#d87881;stroke:#d87881;" x="217.100742" xlink:href="#m3091a75508" y="327.785938"/>
     </g>
    </g>
    <g id="text_12">
     <!-- Strain P2: glycerol -->
     <g transform="translate(235.100742 331.285938)scale(0.1 -0.1)">
      <use xlink:href="#DejaVuSans-83"/>
      <use x="63.476562" xlink:href="#DejaVuSans-116"/>
      <use x="102.685547" xlink:href="#DejaVuSans-114"/>
      <use x="143.798828" xlink:href="#DejaVuSans-97"/>
      <use x="205.078125" xlink:href="#DejaVuSans-105"/>
      <use x="232.861328" xlink:href="#DejaVuSans-110"/>
      <use x="296.240234" xlink:href="#DejaVuSans-32"/>
      <use x="328.027344" xlink:href="#DejaVuSans-80"/>
      <use x="388.330078" xlink:href="#DejaVuSans-50"/>
      <use x="451.953125" xlink:href="#DejaVuSans-58"/>
      <use x="485.644531" xlink:href="#DejaVuSans-32"/>
      <use x="517.431641" xlink:href="#DejaVuSans-103"/>
      <use x="580.908203" xlink:href="#DejaVuSans-108"/>
      <use x="608.691406" xlink:href="#DejaVuSans-121"/>
      <use x="667.871094" xlink:href="#DejaVuSans-99"/>
      <use x="722.851562" xlink:href="#DejaVuSans-101"/>
      <use x="784.375" xlink:href="#DejaVuSans-114"/>
      <use x="825.457031" xlink:href="#DejaVuSans-111"/>
      <use x="886.638672" xlink:href="#DejaVuSans-108"/>
     </g>
    </g>
    <g id="line2d_94">
     <path d="M 207.100742 342.464063 
L 227.100742 342.464063 
" style="fill:none;"/>
    </g>
    <g id="line2d_95">
     <g>
      <use style="fill:#d87881;stroke:#d87881;stroke-linejoin:miter;" x="217.100742" xlink:href="#madfb1d15bf" y="342.464063"/>
     </g>
    </g>
    <g id="text_13">
     <!-- Strain P2: succinate+glycerol -->
     <g transform="translate(235.100742 345.964063)scale(0.1 -0.1)">
      <use xlink:href="#DejaVuSans-83"/>
      <use x="63.476562" xlink:href="#DejaVuSans-116"/>
      <use x="102.685547" xlink:href="#DejaVuSans-114"/>
      <use x="143.798828" xlink:href="#DejaVuSans-97"/>
      <use x="205.078125" xlink:href="#DejaVuSans-105"/>
      <use x="232.861328" xlink:href="#DejaVuSans-110"/>
      <use x="296.240234" xlink:href="#DejaVuSans-32"/>
      <use x="328.027344" xlink:href="#DejaVuSans-80"/>
      <use x="388.330078" xlink:href="#DejaVuSans-50"/>
      <use x="451.953125" xlink:href="#DejaVuSans-58"/>
      <use x="485.644531" xlink:href="#DejaVuSans-32"/>
      <use x="517.431641" xlink:href="#DejaVuSans-115"/>
      <use x="569.53125" xlink:href="#DejaVuSans-117"/>
      <use x="632.910156" xlink:href="#DejaVuSans-99"/>
      <use x="687.890625" xlink:href="#DejaVuSans-99"/>
      <use x="742.871094" xlink:href="#DejaVuSans-105"/>
      <use x="770.654297" xlink:href="#DejaVuSans-110"/>
      <use x="834.033203" xlink:href="#DejaVuSans-97"/>
      <use x="895.3125" xlink:href="#DejaVuSans-116"/>
      <use x="934.521484" xlink:href="#DejaVuSans-101"/>
      <use x="996.044922" xlink:href="#DejaVuSans-43"/>
      <use x="1079.833984" xlink:href="#DejaVuSans-103"/>
      <use x="1143.310547" xlink:href="#DejaVuSans-108"/>
      <use x="1171.09375" xlink:href="#DejaVuSans-121"/>
      <use x="1230.273438" xlink:href="#DejaVuSans-99"/>
      <use x="1285.253906" xlink:href="#DejaVuSans-101"/>
      <use x="1346.777344" xlink:href="#DejaVuSans-114"/>
      <use x="1387.859375" xlink:href="#DejaVuSans-111"/>
      <use x="1449.041016" xlink:href="#DejaVuSans-108"/>
     </g>
    </g>
    <g id="line2d_96">
     <path d="M 207.100742 357.142188 
L 227.100742 357.142188 
" style="fill:none;"/>
    </g>
    <g id="line2d_97">
     <g>
      <use style="fill:#a381bd;stroke:#a381bd;" x="217.100742" xlink:href="#m30d6eb5fa2" y="357.142188"/>
     </g>
    </g>
    <g id="text_14">
     <!-- Strain P3: glycerol+glycine -->
     <g transform="translate(235.100742 360.642188)scale(0.1 -0.1)">
      <use xlink:href="#DejaVuSans-83"/>
      <use x="63.476562" xlink:href="#DejaVuSans-116"/>
      <use x="102.685547" xlink:href="#DejaVuSans-114"/>
      <use x="143.798828" xlink:href="#DejaVuSans-97"/>
      <use x="205.078125" xlink:href="#DejaVuSans-105"/>
      <use x="232.861328" xlink:href="#DejaVuSans-110"/>
      <use x="296.240234" xlink:href="#DejaVuSans-32"/>
      <use x="328.027344" xlink:href="#DejaVuSans-80"/>
      <use x="388.330078" xlink:href="#DejaVuSans-51"/>
      <use x="451.953125" xlink:href="#DejaVuSans-58"/>
      <use x="485.644531" xlink:href="#DejaVuSans-32"/>
      <use x="517.431641" xlink:href="#DejaVuSans-103"/>
      <use x="580.908203" xlink:href="#DejaVuSans-108"/>
      <use x="608.691406" xlink:href="#DejaVuSans-121"/>
      <use x="667.871094" xlink:href="#DejaVuSans-99"/>
      <use x="722.851562" xlink:href="#DejaVuSans-101"/>
      <use x="784.375" xlink:href="#DejaVuSans-114"/>
      <use x="825.457031" xlink:href="#DejaVuSans-111"/>
      <use x="886.638672" xlink:href="#DejaVuSans-108"/>
      <use x="914.421875" xlink:href="#DejaVuSans-43"/>
      <use x="998.210938" xlink:href="#DejaVuSans-103"/>
      <use x="1061.6875" xlink:href="#DejaVuSans-108"/>
      <use x="1089.470703" xlink:href="#DejaVuSans-121"/>
      <use x="1148.650391" xlink:href="#DejaVuSans-99"/>
      <use x="1203.630859" xlink:href="#DejaVuSans-105"/>
      <use x="1231.414062" xlink:href="#DejaVuSans-110"/>
      <use x="1294.792969" xlink:href="#DejaVuSans-101"/>
     </g>
    </g>
    <g id="line2d_98">
     <path d="M 207.100742 371.820312 
L 227.100742 371.820312 
" style="fill:none;"/>
    </g>
    <g id="line2d_99">
     <g>
      <use style="fill:#a381bd;stroke:#a381bd;stroke-linejoin:miter;" x="217.100742" xlink:href="#m11c865b069" y="371.820312"/>
     </g>
    </g>
    <g id="text_15">
     <!-- Strain P3: succinate+glycerol+glycine -->
     <g transform="translate(235.100742 375.320312)scale(0.1 -0.1)">
      <use xlink:href="#DejaVuSans-83"/>
      <use x="63.476562" xlink:href="#DejaVuSans-116"/>
      <use x="102.685547" xlink:href="#DejaVuSans-114"/>
      <use x="143.798828" xlink:href="#DejaVuSans-97"/>
      <use x="205.078125" xlink:href="#DejaVuSans-105"/>
      <use x="232.861328" xlink:href="#DejaVuSans-110"/>
      <use x="296.240234" xlink:href="#DejaVuSans-32"/>
      <use x="328.027344" xlink:href="#DejaVuSans-80"/>
      <use x="388.330078" xlink:href="#DejaVuSans-51"/>
      <use x="451.953125" xlink:href="#DejaVuSans-58"/>
      <use x="485.644531" xlink:href="#DejaVuSans-32"/>
      <use x="517.431641" xlink:href="#DejaVuSans-115"/>
      <use x="569.53125" xlink:href="#DejaVuSans-117"/>
      <use x="632.910156" xlink:href="#DejaVuSans-99"/>
      <use x="687.890625" xlink:href="#DejaVuSans-99"/>
      <use x="742.871094" xlink:href="#DejaVuSans-105"/>
      <use x="770.654297" xlink:href="#DejaVuSans-110"/>
      <use x="834.033203" xlink:href="#DejaVuSans-97"/>
      <use x="895.3125" xlink:href="#DejaVuSans-116"/>
      <use x="934.521484" xlink:href="#DejaVuSans-101"/>
      <use x="996.044922" xlink:href="#DejaVuSans-43"/>
      <use x="1079.833984" xlink:href="#DejaVuSans-103"/>
      <use x="1143.310547" xlink:href="#DejaVuSans-108"/>
      <use x="1171.09375" xlink:href="#DejaVuSans-121"/>
      <use x="1230.273438" xlink:href="#DejaVuSans-99"/>
      <use x="1285.253906" xlink:href="#DejaVuSans-101"/>
      <use x="1346.777344" xlink:href="#DejaVuSans-114"/>
      <use x="1387.859375" xlink:href="#DejaVuSans-111"/>
      <use x="1449.041016" xlink:href="#DejaVuSans-108"/>
      <use x="1476.824219" xlink:href="#DejaVuSans-43"/>
      <use x="1560.613281" xlink:href="#DejaVuSans-103"/>
      <use x="1624.089844" xlink:href="#DejaVuSans-108"/>
      <use x="1651.873047" xlink:href="#DejaVuSans-121"/>
      <use x="1711.052734" xlink:href="#DejaVuSans-99"/>
      <use x="1766.033203" xlink:href="#DejaVuSans-105"/>
      <use x="1793.816406" xlink:href="#DejaVuSans-110"/>
      <use x="1857.195312" xlink:href="#DejaVuSans-101"/>
     </g>
    </g>
   </g>
  </g>
  <g id="axes_2">
   <g id="patch_8">
    <path d="M 459.064805 386.4 
L 849.7 386.4 
L 849.7 30.7 
L 459.064805 30.7 
z
" style="fill:#ffffff;"/>
   </g>
   <g id="matplotlib.axis_3">
    <g id="xtick_19">
     <g id="line2d_100">
      <path clip-path="url(#p1e13d94fa0)" d="M 545.298422 386.4 
L 545.298422 30.7 
" style="fill:none;stroke:#b0b0b0;stroke-linecap:square;stroke-opacity:0.2;stroke-width:0.8;"/>
     </g>
     <g id="line2d_101">
      <g>
       <use style="stroke:#000000;stroke-width:0.8;" x="545.298422" xlink:href="#mfb96e6c79e" y="386.4"/>
      </g>
     </g>
     <g id="text_16">
      <!-- $\mathdefault{10^{0}}$ -->
      <g transform="translate(536.498422 400.998438)scale(0.1 -0.1)">
       <use transform="translate(0 0.765625)" xlink:href="#DejaVuSans-49"/>
       <use transform="translate(63.623047 0.765625)" xlink:href="#DejaVuSans-48"/>
       <use transform="translate(128.203125 39.046875)scale(0.7)" xlink:href="#DejaVuSans-48"/>
      </g>
     </g>
    </g>
    <g id="xtick_20">
     <g id="line2d_102">
      <path clip-path="url(#p1e13d94fa0)" d="M 741.746789 386.4 
L 741.746789 30.7 
" style="fill:none;stroke:#b0b0b0;stroke-linecap:square;stroke-opacity:0.2;stroke-width:0.8;"/>
     </g>
     <g id="line2d_103">
      <g>
       <use style="stroke:#000000;stroke-width:0.8;" x="741.746789" xlink:href="#mfb96e6c79e" y="386.4"/>
      </g>
     </g>
     <g id="text_17">
      <!-- $\mathdefault{10^{1}}$ -->
      <g transform="translate(732.946789 400.998438)scale(0.1 -0.1)">
       <use transform="translate(0 0.684375)" xlink:href="#DejaVuSans-49"/>
       <use transform="translate(63.623047 0.684375)" xlink:href="#DejaVuSans-48"/>
       <use transform="translate(128.203125 38.965625)scale(0.7)" xlink:href="#DejaVuSans-49"/>
      </g>
     </g>
    </g>
    <g id="xtick_21">
     <g id="line2d_104">
      <path clip-path="url(#p1e13d94fa0)" d="M 467.123757 386.4 
L 467.123757 30.7 
" style="fill:none;stroke:#b0b0b0;stroke-linecap:square;stroke-opacity:0.2;stroke-width:0.8;"/>
     </g>
     <g id="line2d_105">
      <g>
       <use style="stroke:#000000;stroke-width:0.6;" x="467.123757" xlink:href="#ma50badac46" y="386.4"/>
      </g>
     </g>
    </g>
    <g id="xtick_22">
     <g id="line2d_106">
      <path clip-path="url(#p1e13d94fa0)" d="M 486.161571 386.4 
L 486.161571 30.7 
" style="fill:none;stroke:#b0b0b0;stroke-linecap:square;stroke-opacity:0.2;stroke-width:0.8;"/>
     </g>
     <g id="line2d_107">
      <g>
       <use style="stroke:#000000;stroke-width:0.6;" x="486.161571" xlink:href="#ma50badac46" y="386.4"/>
      </g>
     </g>
    </g>
    <g id="xtick_23">
     <g id="line2d_108">
      <path clip-path="url(#p1e13d94fa0)" d="M 501.716597 386.4 
L 501.716597 30.7 
" style="fill:none;stroke:#b0b0b0;stroke-linecap:square;stroke-opacity:0.2;stroke-width:0.8;"/>
     </g>
     <g id="line2d_109">
      <g>
       <use style="stroke:#000000;stroke-width:0.6;" x="501.716597" xlink:href="#ma50badac46" y="386.4"/>
      </g>
     </g>
    </g>
    <g id="xtick_24">
     <g id="line2d_110">
      <path clip-path="url(#p1e13d94fa0)" d="M 514.868185 386.4 
L 514.868185 30.7 
" style="fill:none;stroke:#b0b0b0;stroke-linecap:square;stroke-opacity:0.2;stroke-width:0.8;"/>
     </g>
     <g id="line2d_111">
      <g>
       <use style="stroke:#000000;stroke-width:0.6;" x="514.868185" xlink:href="#ma50badac46" y="386.4"/>
      </g>
     </g>
    </g>
    <g id="xtick_25">
     <g id="line2d_112">
      <path clip-path="url(#p1e13d94fa0)" d="M 526.260608 386.4 
L 526.260608 30.7 
" style="fill:none;stroke:#b0b0b0;stroke-linecap:square;stroke-opacity:0.2;stroke-width:0.8;"/>
     </g>
     <g id="line2d_113">
      <g>
       <use style="stroke:#000000;stroke-width:0.6;" x="526.260608" xlink:href="#ma50badac46" y="386.4"/>
      </g>
     </g>
    </g>
    <g id="xtick_26">
     <g id="line2d_114">
      <path clip-path="url(#p1e13d94fa0)" d="M 536.309438 386.4 
L 536.309438 30.7 
" style="fill:none;stroke:#b0b0b0;stroke-linecap:square;stroke-opacity:0.2;stroke-width:0.8;"/>
     </g>
     <g id="line2d_115">
      <g>
       <use style="stroke:#000000;stroke-width:0.6;" x="536.309438" xlink:href="#ma50badac46" y="386.4"/>
      </g>
     </g>
    </g>
    <g id="xtick_27">
     <g id="line2d_116">
      <path clip-path="url(#p1e13d94fa0)" d="M 604.435273 386.4 
L 604.435273 30.7 
" style="fill:none;stroke:#b0b0b0;stroke-linecap:square;stroke-opacity:0.2;stroke-width:0.8;"/>
     </g>
     <g id="line2d_117">
      <g>
       <use style="stroke:#000000;stroke-width:0.6;" x="604.435273" xlink:href="#ma50badac46" y="386.4"/>
      </g>
     </g>
    </g>
    <g id="xtick_28">
     <g id="line2d_118">
      <path clip-path="url(#p1e13d94fa0)" d="M 639.028113 386.4 
L 639.028113 30.7 
" style="fill:none;stroke:#b0b0b0;stroke-linecap:square;stroke-opacity:0.2;stroke-width:0.8;"/>
     </g>
     <g id="line2d_119">
      <g>
       <use style="stroke:#000000;stroke-width:0.6;" x="639.028113" xlink:href="#ma50badac46" y="386.4"/>
      </g>
     </g>
    </g>
    <g id="xtick_29">
     <g id="line2d_120">
      <path clip-path="url(#p1e13d94fa0)" d="M 663.572124 386.4 
L 663.572124 30.7 
" style="fill:none;stroke:#b0b0b0;stroke-linecap:square;stroke-opacity:0.2;stroke-width:0.8;"/>
     </g>
     <g id="line2d_121">
      <g>
       <use style="stroke:#000000;stroke-width:0.6;" x="663.572124" xlink:href="#ma50badac46" y="386.4"/>
      </g>
     </g>
    </g>
    <g id="xtick_30">
     <g id="line2d_122">
      <path clip-path="url(#p1e13d94fa0)" d="M 682.609938 386.4 
L 682.609938 30.7 
" style="fill:none;stroke:#b0b0b0;stroke-linecap:square;stroke-opacity:0.2;stroke-width:0.8;"/>
     </g>
     <g id="line2d_123">
      <g>
       <use style="stroke:#000000;stroke-width:0.6;" x="682.609938" xlink:href="#ma50badac46" y="386.4"/>
      </g>
     </g>
    </g>
    <g id="xtick_31">
     <g id="line2d_124">
      <path clip-path="url(#p1e13d94fa0)" d="M 698.164965 386.4 
L 698.164965 30.7 
" style="fill:none;stroke:#b0b0b0;stroke-linecap:square;stroke-opacity:0.2;stroke-width:0.8;"/>
     </g>
     <g id="line2d_125">
      <g>
       <use style="stroke:#000000;stroke-width:0.6;" x="698.164965" xlink:href="#ma50badac46" y="386.4"/>
      </g>
     </g>
    </g>
    <g id="xtick_32">
     <g id="line2d_126">
      <path clip-path="url(#p1e13d94fa0)" d="M 711.316552 386.4 
L 711.316552 30.7 
" style="fill:none;stroke:#b0b0b0;stroke-linecap:square;stroke-opacity:0.2;stroke-width:0.8;"/>
     </g>
     <g id="line2d_127">
      <g>
       <use style="stroke:#000000;stroke-width:0.6;" x="711.316552" xlink:href="#ma50badac46" y="386.4"/>
      </g>
     </g>
    </g>
    <g id="xtick_33">
     <g id="line2d_128">
      <path clip-path="url(#p1e13d94fa0)" d="M 722.708975 386.4 
L 722.708975 30.7 
" style="fill:none;stroke:#b0b0b0;stroke-linecap:square;stroke-opacity:0.2;stroke-width:0.8;"/>
     </g>
     <g id="line2d_129">
      <g>
       <use style="stroke:#000000;stroke-width:0.6;" x="722.708975" xlink:href="#ma50badac46" y="386.4"/>
      </g>
     </g>
    </g>
    <g id="xtick_34">
     <g id="line2d_130">
      <path clip-path="url(#p1e13d94fa0)" d="M 732.757805 386.4 
L 732.757805 30.7 
" style="fill:none;stroke:#b0b0b0;stroke-linecap:square;stroke-opacity:0.2;stroke-width:0.8;"/>
     </g>
     <g id="line2d_131">
      <g>
       <use style="stroke:#000000;stroke-width:0.6;" x="732.757805" xlink:href="#ma50badac46" y="386.4"/>
      </g>
     </g>
    </g>
    <g id="xtick_35">
     <g id="line2d_132">
      <path clip-path="url(#p1e13d94fa0)" d="M 800.88364 386.4 
L 800.88364 30.7 
" style="fill:none;stroke:#b0b0b0;stroke-linecap:square;stroke-opacity:0.2;stroke-width:0.8;"/>
     </g>
     <g id="line2d_133">
      <g>
       <use style="stroke:#000000;stroke-width:0.6;" x="800.88364" xlink:href="#ma50badac46" y="386.4"/>
      </g>
     </g>
    </g>
    <g id="xtick_36">
     <g id="line2d_134">
      <path clip-path="url(#p1e13d94fa0)" d="M 835.476481 386.4 
L 835.476481 30.7 
" style="fill:none;stroke:#b0b0b0;stroke-linecap:square;stroke-opacity:0.2;stroke-width:0.8;"/>
     </g>
     <g id="line2d_135">
      <g>
       <use style="stroke:#000000;stroke-width:0.6;" x="835.476481" xlink:href="#ma50badac46" y="386.4"/>
      </g>
     </g>
    </g>
    <g id="text_18">
     <!-- GBR (mmol per gCDW) -->
     <g transform="translate(596.980059 414.676563)scale(0.1 -0.1)">
      <use xlink:href="#DejaVuSans-71"/>
      <use x="77.490234" xlink:href="#DejaVuSans-66"/>
      <use x="146.09375" xlink:href="#DejaVuSans-82"/>
      <use x="215.576172" xlink:href="#DejaVuSans-32"/>
      <use x="247.363281" xlink:href="#DejaVuSans-40"/>
      <use x="286.376953" xlink:href="#DejaVuSans-109"/>
      <use x="383.789062" xlink:href="#DejaVuSans-109"/>
      <use x="481.201172" xlink:href="#DejaVuSans-111"/>
      <use x="542.382812" xlink:href="#DejaVuSans-108"/>
      <use x="570.166016" xlink:href="#DejaVuSans-32"/>
      <use x="601.953125" xlink:href="#DejaVuSans-112"/>
      <use x="665.429688" xlink:href="#DejaVuSans-101"/>
      <use x="726.953125" xlink:href="#DejaVuSans-114"/>
      <use x="768.066406" xlink:href="#DejaVuSans-32"/>
      <use x="799.853516" xlink:href="#DejaVuSans-103"/>
      <use x="863.330078" xlink:href="#DejaVuSans-67"/>
      <use x="933.154297" xlink:href="#DejaVuSans-68"/>
      <use x="1010.15625" xlink:href="#DejaVuSans-87"/>
      <use x="1109.033203" xlink:href="#DejaVuSans-41"/>
     </g>
    </g>
   </g>
   <g id="matplotlib.axis_4">
    <g id="ytick_20">
     <g id="line2d_136">
      <path clip-path="url(#p1e13d94fa0)" d="M 459.064805 310.549869 
L 849.7 310.549869 
" style="fill:none;stroke:#b0b0b0;stroke-linecap:square;stroke-opacity:0.2;stroke-width:0.8;"/>
     </g>
     <g id="line2d_137">
      <g>
       <use style="stroke:#000000;stroke-width:0.8;" x="459.064805" xlink:href="#m7f7742185b" y="310.549869"/>
      </g>
     </g>
    </g>
    <g id="ytick_21">
     <g id="line2d_138">
      <path clip-path="url(#p1e13d94fa0)" d="M 459.064805 139.334124 
L 849.7 139.334124 
" style="fill:none;stroke:#b0b0b0;stroke-linecap:square;stroke-opacity:0.2;stroke-width:0.8;"/>
     </g>
     <g id="line2d_139">
      <g>
       <use style="stroke:#000000;stroke-width:0.8;" x="459.064805" xlink:href="#m7f7742185b" y="139.334124"/>
      </g>
     </g>
    </g>
    <g id="ytick_22">
     <g id="line2d_140">
      <path clip-path="url(#p1e13d94fa0)" d="M 459.064805 378.683464 
L 849.7 378.683464 
" style="fill:none;stroke:#b0b0b0;stroke-linecap:square;stroke-opacity:0.2;stroke-width:0.8;"/>
     </g>
     <g id="line2d_141">
      <g>
       <use style="stroke:#000000;stroke-width:0.6;" x="459.064805" xlink:href="#m69a510b0be" y="378.683464"/>
      </g>
     </g>
    </g>
    <g id="ytick_23">
     <g id="line2d_142">
      <path clip-path="url(#p1e13d94fa0)" d="M 459.064805 362.090944 
L 849.7 362.090944 
" style="fill:none;stroke:#b0b0b0;stroke-linecap:square;stroke-opacity:0.2;stroke-width:0.8;"/>
     </g>
     <g id="line2d_143">
      <g>
       <use style="stroke:#000000;stroke-width:0.6;" x="459.064805" xlink:href="#m69a510b0be" y="362.090944"/>
      </g>
     </g>
    </g>
    <g id="ytick_24">
     <g id="line2d_144">
      <path clip-path="url(#p1e13d94fa0)" d="M 459.064805 348.533868 
L 849.7 348.533868 
" style="fill:none;stroke:#b0b0b0;stroke-linecap:square;stroke-opacity:0.2;stroke-width:0.8;"/>
     </g>
     <g id="line2d_145">
      <g>
       <use style="stroke:#000000;stroke-width:0.6;" x="459.064805" xlink:href="#m69a510b0be" y="348.533868"/>
      </g>
     </g>
    </g>
    <g id="ytick_25">
     <g id="line2d_146">
      <path clip-path="url(#p1e13d94fa0)" d="M 459.064805 337.071524 
L 849.7 337.071524 
" style="fill:none;stroke:#b0b0b0;stroke-linecap:square;stroke-opacity:0.2;stroke-width:0.8;"/>
     </g>
     <g id="line2d_147">
      <g>
       <use style="stroke:#000000;stroke-width:0.6;" x="459.064805" xlink:href="#m69a510b0be" y="337.071524"/>
      </g>
     </g>
    </g>
    <g id="ytick_26">
     <g id="line2d_148">
      <path clip-path="url(#p1e13d94fa0)" d="M 459.064805 327.142389 
L 849.7 327.142389 
" style="fill:none;stroke:#b0b0b0;stroke-linecap:square;stroke-opacity:0.2;stroke-width:0.8;"/>
     </g>
     <g id="line2d_149">
      <g>
       <use style="stroke:#000000;stroke-width:0.6;" x="459.064805" xlink:href="#m69a510b0be" y="327.142389"/>
      </g>
     </g>
    </g>
    <g id="ytick_27">
     <g id="line2d_150">
      <path clip-path="url(#p1e13d94fa0)" d="M 459.064805 318.384272 
L 849.7 318.384272 
" style="fill:none;stroke:#b0b0b0;stroke-linecap:square;stroke-opacity:0.2;stroke-width:0.8;"/>
     </g>
     <g id="line2d_151">
      <g>
       <use style="stroke:#000000;stroke-width:0.6;" x="459.064805" xlink:href="#m69a510b0be" y="318.384272"/>
      </g>
     </g>
    </g>
    <g id="ytick_28">
     <g id="line2d_152">
      <path clip-path="url(#p1e13d94fa0)" d="M 459.064805 259.008794 
L 849.7 259.008794 
" style="fill:none;stroke:#b0b0b0;stroke-linecap:square;stroke-opacity:0.2;stroke-width:0.8;"/>
     </g>
     <g id="line2d_153">
      <g>
       <use style="stroke:#000000;stroke-width:0.6;" x="459.064805" xlink:href="#m69a510b0be" y="259.008794"/>
      </g>
     </g>
    </g>
    <g id="ytick_29">
     <g id="line2d_154">
      <path clip-path="url(#p1e13d94fa0)" d="M 459.064805 228.859198 
L 849.7 228.859198 
" style="fill:none;stroke:#b0b0b0;stroke-linecap:square;stroke-opacity:0.2;stroke-width:0.8;"/>
     </g>
     <g id="line2d_155">
      <g>
       <use style="stroke:#000000;stroke-width:0.6;" x="459.064805" xlink:href="#m69a510b0be" y="228.859198"/>
      </g>
     </g>
    </g>
    <g id="ytick_30">
     <g id="line2d_156">
      <path clip-path="url(#p1e13d94fa0)" d="M 459.064805 207.467719 
L 849.7 207.467719 
" style="fill:none;stroke:#b0b0b0;stroke-linecap:square;stroke-opacity:0.2;stroke-width:0.8;"/>
     </g>
     <g id="line2d_157">
      <g>
       <use style="stroke:#000000;stroke-width:0.6;" x="459.064805" xlink:href="#m69a510b0be" y="207.467719"/>
      </g>
     </g>
    </g>
    <g id="ytick_31">
     <g id="line2d_158">
      <path clip-path="url(#p1e13d94fa0)" d="M 459.064805 190.875199 
L 849.7 190.875199 
" style="fill:none;stroke:#b0b0b0;stroke-linecap:square;stroke-opacity:0.2;stroke-width:0.8;"/>
     </g>
     <g id="line2d_159">
      <g>
       <use style="stroke:#000000;stroke-width:0.6;" x="459.064805" xlink:href="#m69a510b0be" y="190.875199"/>
      </g>
     </g>
    </g>
    <g id="ytick_32">
     <g id="line2d_160">
      <path clip-path="url(#p1e13d94fa0)" d="M 459.064805 177.318123 
L 849.7 177.318123 
" style="fill:none;stroke:#b0b0b0;stroke-linecap:square;stroke-opacity:0.2;stroke-width:0.8;"/>
     </g>
     <g id="line2d_161">
      <g>
       <use style="stroke:#000000;stroke-width:0.6;" x="459.064805" xlink:href="#m69a510b0be" y="177.318123"/>
      </g>
     </g>
    </g>
    <g id="ytick_33">
     <g id="line2d_162">
      <path clip-path="url(#p1e13d94fa0)" d="M 459.064805 165.855778 
L 849.7 165.855778 
" style="fill:none;stroke:#b0b0b0;stroke-linecap:square;stroke-opacity:0.2;stroke-width:0.8;"/>
     </g>
     <g id="line2d_163">
      <g>
       <use style="stroke:#000000;stroke-width:0.6;" x="459.064805" xlink:href="#m69a510b0be" y="165.855778"/>
      </g>
     </g>
    </g>
    <g id="ytick_34">
     <g id="line2d_164">
      <path clip-path="url(#p1e13d94fa0)" d="M 459.064805 155.926644 
L 849.7 155.926644 
" style="fill:none;stroke:#b0b0b0;stroke-linecap:square;stroke-opacity:0.2;stroke-width:0.8;"/>
     </g>
     <g id="line2d_165">
      <g>
       <use style="stroke:#000000;stroke-width:0.6;" x="459.064805" xlink:href="#m69a510b0be" y="155.926644"/>
      </g>
     </g>
    </g>
    <g id="ytick_35">
     <g id="line2d_166">
      <path clip-path="url(#p1e13d94fa0)" d="M 459.064805 147.168527 
L 849.7 147.168527 
" style="fill:none;stroke:#b0b0b0;stroke-linecap:square;stroke-opacity:0.2;stroke-width:0.8;"/>
     </g>
     <g id="line2d_167">
      <g>
       <use style="stroke:#000000;stroke-width:0.6;" x="459.064805" xlink:href="#m69a510b0be" y="147.168527"/>
      </g>
     </g>
    </g>
    <g id="ytick_36">
     <g id="line2d_168">
      <path clip-path="url(#p1e13d94fa0)" d="M 459.064805 87.793049 
L 849.7 87.793049 
" style="fill:none;stroke:#b0b0b0;stroke-linecap:square;stroke-opacity:0.2;stroke-width:0.8;"/>
     </g>
     <g id="line2d_169">
      <g>
       <use style="stroke:#000000;stroke-width:0.6;" x="459.064805" xlink:href="#m69a510b0be" y="87.793049"/>
      </g>
     </g>
    </g>
    <g id="ytick_37">
     <g id="line2d_170">
      <path clip-path="url(#p1e13d94fa0)" d="M 459.064805 57.643453 
L 849.7 57.643453 
" style="fill:none;stroke:#b0b0b0;stroke-linecap:square;stroke-opacity:0.2;stroke-width:0.8;"/>
     </g>
     <g id="line2d_171">
      <g>
       <use style="stroke:#000000;stroke-width:0.6;" x="459.064805" xlink:href="#m69a510b0be" y="57.643453"/>
      </g>
     </g>
    </g>
    <g id="ytick_38">
     <g id="line2d_172">
      <path clip-path="url(#p1e13d94fa0)" d="M 459.064805 36.251974 
L 849.7 36.251974 
" style="fill:none;stroke:#b0b0b0;stroke-linecap:square;stroke-opacity:0.2;stroke-width:0.8;"/>
     </g>
     <g id="line2d_173">
      <g>
       <use style="stroke:#000000;stroke-width:0.6;" x="459.064805" xlink:href="#m69a510b0be" y="36.251974"/>
      </g>
     </g>
    </g>
   </g>
   <g id="line2d_174">
    <path clip-path="url(#p1e13d94fa0)" d="M 476.82095 368.480387 
L 831.943855 58.970902 
" style="fill:none;stroke:#000000;stroke-dasharray:5.55,2.4;stroke-dashoffset:0;stroke-width:1.5;"/>
   </g>
   <g id="line2d_175">
    <path clip-path="url(#p1e13d94fa0)" d="M 666.780691 224.730633 
" style="fill:none;"/>
    <g clip-path="url(#p1e13d94fa0)">
     <use style="fill:#66a488;stroke:#66a488;stroke-linejoin:miter;" x="666.780691" xlink:href="#m3291d117c7" y="224.730633"/>
    </g>
   </g>
   <g id="line2d_176">
    <path clip-path="url(#p1e13d94fa0)" d="M 479.4178 370.231818 
" style="fill:none;"/>
    <g clip-path="url(#p1e13d94fa0)">
     <use style="fill:#4991c9;stroke:#4991c9;stroke-linejoin:miter;" x="479.4178" xlink:href="#m79b605b712" y="370.231818"/>
    </g>
   </g>
   <g id="line2d_177">
    <path clip-path="url(#p1e13d94fa0)" d="M 827.183742 60.722334 
" style="fill:none;"/>
    <g clip-path="url(#p1e13d94fa0)">
     <use style="fill:#cc9f68;stroke:#cc9f68;" x="827.183742" xlink:href="#m0c686f7dec" y="60.722334"/>
    </g>
   </g>
   <g id="line2d_178">
    <path clip-path="url(#p1e13d94fa0)" d="M 676.828379 173.164636 
" style="fill:none;"/>
    <g clip-path="url(#p1e13d94fa0)">
     <use style="fill:#cc9f68;stroke:#cc9f68;stroke-linejoin:miter;" x="676.828379" xlink:href="#m50e78206e1" y="173.164636"/>
    </g>
   </g>
   <g id="line2d_179">
    <path clip-path="url(#p1e13d94fa0)" d="M 815.502015 66.232605 
" style="fill:none;"/>
    <g clip-path="url(#p1e13d94fa0)">
     <use style="fill:#d87881;stroke:#d87881;" x="815.502015" xlink:href="#m3091a75508" y="66.232605"/>
    </g>
   </g>
   <g id="line2d_180">
    <path clip-path="url(#p1e13d94fa0)" d="M 605.034558 248.885135 
" style="fill:none;"/>
    <g clip-path="url(#p1e13d94fa0)">
     <use style="fill:#d87881;stroke:#d87881;stroke-linejoin:miter;" x="605.034558" xlink:href="#madfb1d15bf" y="248.885135"/>
    </g>
   </g>
   <g id="line2d_181">
    <path clip-path="url(#p1e13d94fa0)" d="M 810.357018 69.499306 
" style="fill:none;"/>
    <g clip-path="url(#p1e13d94fa0)">
     <use style="fill:#a381bd;stroke:#a381bd;" x="810.357018" xlink:href="#m30d6eb5fa2" y="69.499306"/>
    </g>
   </g>
   <g id="line2d_182">
    <path clip-path="url(#p1e13d94fa0)" d="M 543.670423 330.991093 
" style="fill:none;"/>
    <g clip-path="url(#p1e13d94fa0)">
     <use style="fill:#a381bd;stroke:#a381bd;stroke-linejoin:miter;" x="543.670423" xlink:href="#m11c865b069" y="330.991093"/>
    </g>
   </g>
   <g id="patch_9">
    <path d="M 459.064805 386.4 
L 459.064805 30.7 
" style="fill:none;stroke:#000000;stroke-linecap:square;stroke-linejoin:miter;stroke-width:0.8;"/>
   </g>
   <g id="patch_10">
    <path d="M 849.7 386.4 
L 849.7 30.7 
" style="fill:none;stroke:#000000;stroke-linecap:square;stroke-linejoin:miter;stroke-width:0.8;"/>
   </g>
   <g id="patch_11">
    <path d="M 459.064805 386.4 
L 849.7 386.4 
" style="fill:none;stroke:#000000;stroke-linecap:square;stroke-linejoin:miter;stroke-width:0.8;"/>
   </g>
   <g id="patch_12">
    <path d="M 459.064805 30.7 
L 849.7 30.7 
" style="fill:none;stroke:#000000;stroke-linecap:square;stroke-linejoin:miter;stroke-width:0.8;"/>
   </g>
   <g id="text_19">
    <!-- $\Delta$zwf $\longrightarrow$ -->
    <defs>
     <path d="M 34.1875 63.1875 
L 14.15625 8.203125 
L 54.25 8.203125 
z
M 0.78125 0 
L 28.609375 72.90625 
L 39.796875 72.90625 
L 67.578125 0 
z
" id="DejaVuSans-916"/>
     <path d="M 5.515625 54.6875 
L 48.1875 54.6875 
L 48.1875 46.484375 
L 14.40625 7.171875 
L 48.1875 7.171875 
L 48.1875 0 
L 4.296875 0 
L 4.296875 8.203125 
L 38.09375 47.515625 
L 5.515625 47.515625 
z
" id="DejaVuSans-122"/>
     <path d="M 4.203125 54.6875 
L 13.1875 54.6875 
L 24.421875 12.015625 
L 35.59375 54.6875 
L 46.1875 54.6875 
L 57.421875 12.015625 
L 68.609375 54.6875 
L 77.59375 54.6875 
L 63.28125 0 
L 52.6875 0 
L 40.921875 44.828125 
L 29.109375 0 
L 18.5 0 
z
" id="DejaVuSans-119"/>
     <path d="M 37.109375 75.984375 
L 37.109375 68.5 
L 28.515625 68.5 
Q 23.6875 68.5 21.796875 66.546875 
Q 19.921875 64.59375 19.921875 59.515625 
L 19.921875 54.6875 
L 34.71875 54.6875 
L 34.71875 47.703125 
L 19.921875 47.703125 
L 19.921875 0 
L 10.890625 0 
L 10.890625 47.703125 
L 2.296875 47.703125 
L 2.296875 54.6875 
L 10.890625 54.6875 
L 10.890625 58.5 
Q 10.890625 67.625 15.140625 71.796875 
Q 19.390625 75.984375 28.609375 75.984375 
z
" id="DejaVuSans-102"/>
     <path d="M 138.484375 33.546875 
L 138.484375 29.15625 
L 119.28125 9.96875 
L 113.421875 15.828125 
L 124.8125 27.203125 
L 5.71875 27.203125 
L 5.71875 35.5 
L 124.8125 35.5 
L 113.421875 46.875 
L 119.28125 52.734375 
z
" id="DejaVuSans-10230"/>
    </defs>
    <g transform="translate(749.878315 71.200529)scale(0.1 -0.1)">
     <use transform="translate(0 0.015625)" xlink:href="#DejaVuSans-916"/>
     <use transform="translate(68.408203 0.015625)" xlink:href="#DejaVuSans-122"/>
     <use transform="translate(120.898438 0.015625)" xlink:href="#DejaVuSans-119"/>
     <use transform="translate(202.685547 0.015625)" xlink:href="#DejaVuSans-102"/>
     <use transform="translate(237.890625 0.015625)" xlink:href="#DejaVuSans-32"/>
     <use transform="translate(289.160156 0.015625)" xlink:href="#DejaVuSans-10230"/>
    </g>
   </g>
   <g id="text_20">
    <!-- $r^2$ = 0.99, RMSE = 0.19 -->
    <g transform="translate(583.582402 24.7)scale(0.12 -0.12)">
     <use transform="translate(0 0.765625)" xlink:href="#DejaVuSans-Oblique-114"/>
     <use transform="translate(45.763177 39.046875)scale(0.7)" xlink:href="#DejaVuSans-50"/>
     <use transform="translate(93.033685 0.765625)" xlink:href="#DejaVuSans-32"/>
     <use transform="translate(124.820794 0.765625)" xlink:href="#DejaVuSans-61"/>
     <use transform="translate(208.609857 0.765625)" xlink:href="#DejaVuSans-32"/>
     <use transform="translate(240.396966 0.765625)" xlink:href="#DejaVuSans-48"/>
     <use transform="translate(304.020013 0.765625)" xlink:href="#DejaVuSans-46"/>
     <use transform="translate(335.807122 0.765625)" xlink:href="#DejaVuSans-57"/>
     <use transform="translate(399.430169 0.765625)" xlink:href="#DejaVuSans-57"/>
     <use transform="translate(463.053216 0.765625)" xlink:href="#DejaVuSans-44"/>
     <use transform="translate(494.840326 0.765625)" xlink:href="#DejaVuSans-32"/>
     <use transform="translate(526.627435 0.765625)" xlink:href="#DejaVuSans-82"/>
     <use transform="translate(596.109857 0.765625)" xlink:href="#DejaVuSans-77"/>
     <use transform="translate(682.389154 0.765625)" xlink:href="#DejaVuSans-83"/>
     <use transform="translate(745.865716 0.765625)" xlink:href="#DejaVuSans-69"/>
     <use transform="translate(809.04931 0.765625)" xlink:href="#DejaVuSans-32"/>
     <use transform="translate(840.836419 0.765625)" xlink:href="#DejaVuSans-61"/>
     <use transform="translate(924.625482 0.765625)" xlink:href="#DejaVuSans-32"/>
     <use transform="translate(956.412591 0.765625)" xlink:href="#DejaVuSans-48"/>
     <use transform="translate(1020.035638 0.765625)" xlink:href="#DejaVuSans-46"/>
     <use transform="translate(1051.822747 0.765625)" xlink:href="#DejaVuSans-49"/>
     <use transform="translate(1115.445794 0.765625)" xlink:href="#DejaVuSans-57"/>
    </g>
   </g>
  </g>
 </g>
 <defs>
  <clipPath id="pb809cd157e">
   <rect height="355.7" width="390.635195" x="50.629609" y="30.7"/>
  </clipPath>
  <clipPath id="p1e13d94fa0">
   <rect height="355.7" width="390.635195" x="459.064805" y="30.7"/>
  </clipPath>
 </defs>
</svg>
